<?xml version="1.0" encoding="utf-8"?>
<!-- Generator: Adobe Illustrator 17.1.0, SVG Export Plug-In . SVG Version: 6.00 Build 0)  -->
<!DOCTYPE svg PUBLIC "-//W3C//DTD SVG 1.1//EN" "http://www.w3.org/Graphics/SVG/1.1/DTD/svg11.dtd">
<svg version="1.1" xmlns="http://www.w3.org/2000/svg" xmlns:xlink="http://www.w3.org/1999/xlink" x="0px" y="0px"
	 viewBox="0 0 201 10" enable-background="new 0 0 201 10" xml:space="preserve">
<g id="BG" display="none">
	<rect y="-98" display="inline" fill="#E6E6E6" width="201" height="163"/>
</g>
<g id="Homeヘッダーフッター銀座">
</g>
<g id="Slice">
	<rect id="_x3C_スライス_x3E__3_" fill="none" width="201" height="10"/>
</g>
<g id="Homeヘッダーフッター青山">
	<g>
		<g>
			<path fill="#FFFFFF" d="M0.751,9.132c0.449-0.046,0.728-0.143,0.84-0.29C1.7,8.694,1.756,8.351,1.756,7.812v-5.63
				c0-0.457-0.061-0.756-0.186-0.898c-0.124-0.142-0.397-0.232-0.819-0.27V0.772h3.238c0.675,0,1.236,0.095,1.686,0.285
				c0.854,0.359,1.279,1.021,1.279,1.984c0,0.647-0.189,1.143-0.568,1.49C6.007,4.878,5.492,5.106,4.841,5.216l2.411,3.299
				C7.4,8.717,7.549,8.864,7.697,8.956c0.148,0.092,0.339,0.151,0.571,0.176v0.241H6.384L3.458,5.368L2.944,5.4v2.562
				c0,0.481,0.065,0.786,0.197,0.914C3.272,9.005,3.56,9.09,4.001,9.132v0.241h-3.25V9.132z M4.749,4.626
				C5.37,4.342,5.681,3.811,5.681,3.029c0-0.752-0.277-1.265-0.834-1.54C4.55,1.342,4.155,1.268,3.664,1.268
				c-0.331,0-0.534,0.026-0.608,0.079C2.981,1.399,2.944,1.523,2.944,1.717v3.2C3.786,4.884,4.388,4.786,4.749,4.626z"/>
			<path fill="#FFFFFF" d="M10.894,9.132c0.431-0.05,0.71-0.136,0.838-0.256c0.127-0.12,0.191-0.424,0.191-0.912V2.182
				c0-0.461-0.064-0.763-0.189-0.905c-0.125-0.142-0.405-0.229-0.84-0.263V0.772h6.217l0.039,1.86h-0.297
				c-0.1-0.573-0.248-0.943-0.445-1.112c-0.198-0.169-0.641-0.253-1.326-0.253h-1.592c-0.172,0-0.278,0.031-0.318,0.092
				c-0.04,0.061-0.061,0.176-0.061,0.346v2.901h1.806c0.499,0,0.817-0.082,0.954-0.246c0.137-0.165,0.248-0.497,0.331-0.998h0.274
				v3.002h-0.274c-0.087-0.503-0.2-0.837-0.337-1c-0.137-0.163-0.453-0.244-0.948-0.244H13.11v3.218
				c0,0.258,0.074,0.411,0.221,0.457c0.146,0.046,0.586,0.07,1.318,0.07c0.793,0,1.379-0.096,1.757-0.289
				c0.378-0.192,0.717-0.659,1.018-1.399h0.325l-0.531,2.196h-6.324V9.132z"/>
			<path fill="#FFFFFF" d="M21.004,6.758c0.198,0.584,0.43,1.049,0.696,1.397c0.464,0.605,1.04,0.908,1.728,0.908
				c0.373,0,0.695-0.131,0.967-0.394c0.271-0.262,0.408-0.628,0.408-1.098c0-0.423-0.137-0.792-0.411-1.104
				c-0.179-0.199-0.555-0.497-1.129-0.895l-0.998-0.692c-0.3-0.211-0.54-0.425-0.719-0.641C21.216,3.828,21.05,3.375,21.05,2.88
				c0-0.656,0.196-1.202,0.588-1.638c0.393-0.436,0.912-0.654,1.561-0.654c0.266,0,0.587,0.073,0.963,0.219
				c0.375,0.146,0.589,0.219,0.642,0.219c0.145,0,0.244-0.038,0.299-0.114c0.056-0.076,0.099-0.184,0.129-0.324h0.24l0.257,2.768
				h-0.28c-0.189-0.834-0.496-1.416-0.916-1.746c-0.422-0.33-0.838-0.495-1.248-0.495c-0.32,0-0.6,0.105-0.838,0.314
				c-0.238,0.21-0.357,0.5-0.357,0.873c0,0.335,0.092,0.62,0.274,0.857c0.183,0.241,0.466,0.493,0.851,0.755l1.027,0.705
				c0.643,0.44,1.096,0.844,1.36,1.212c0.26,0.373,0.39,0.812,0.39,1.32c0,0.681-0.23,1.251-0.693,1.707
				c-0.463,0.457-1.055,0.686-1.774,0.686c-0.362,0-0.739-0.076-1.134-0.228c-0.394-0.152-0.62-0.229-0.678-0.229
				c-0.137,0-0.229,0.046-0.276,0.14c-0.048,0.093-0.079,0.192-0.095,0.298h-0.257l-0.349-2.768H21.004z"/>
			<path fill="#FFFFFF" d="M29.228,9.132c0.431-0.05,0.71-0.136,0.838-0.256c0.127-0.12,0.191-0.424,0.191-0.912V2.182
				c0-0.461-0.063-0.763-0.189-0.905c-0.125-0.142-0.405-0.229-0.84-0.263V0.772h6.217l0.039,1.86h-0.297
				c-0.1-0.573-0.248-0.943-0.445-1.112c-0.198-0.169-0.641-0.253-1.326-0.253h-1.592c-0.172,0-0.278,0.031-0.318,0.092
				c-0.04,0.061-0.061,0.176-0.061,0.346v2.901h1.806c0.499,0,0.817-0.082,0.954-0.246c0.137-0.165,0.248-0.497,0.331-0.998h0.274
				v3.002h-0.274c-0.087-0.503-0.2-0.837-0.337-1c-0.137-0.163-0.453-0.244-0.948-0.244h-1.806v3.218
				c0,0.258,0.074,0.411,0.221,0.457s0.586,0.07,1.318,0.07c0.793,0,1.379-0.096,1.757-0.289c0.378-0.192,0.717-0.659,1.018-1.399
				h0.325l-0.531,2.196h-6.324V9.132z"/>
			<path fill="#FFFFFF" d="M38.715,9.132c0.449-0.046,0.729-0.143,0.84-0.29c0.11-0.148,0.165-0.491,0.165-1.03v-5.63
				c0-0.457-0.062-0.756-0.186-0.898c-0.123-0.142-0.397-0.232-0.819-0.27V0.772h3.239c0.674,0,1.236,0.095,1.686,0.285
				c0.854,0.359,1.279,1.021,1.279,1.984c0,0.647-0.189,1.143-0.568,1.49c-0.379,0.347-0.894,0.575-1.545,0.685l2.41,3.299
				c0.148,0.202,0.297,0.349,0.445,0.441c0.148,0.092,0.34,0.151,0.572,0.176v0.241h-1.885l-2.927-4.005L40.909,5.4v2.562
				c0,0.481,0.064,0.786,0.197,0.914c0.131,0.129,0.417,0.214,0.859,0.256v0.241h-3.251V9.132z M42.714,4.626
				c0.621-0.283,0.932-0.815,0.932-1.597c0-0.752-0.278-1.265-0.834-1.54c-0.297-0.147-0.691-0.222-1.184-0.222
				c-0.33,0-0.533,0.026-0.607,0.079c-0.074,0.053-0.111,0.176-0.111,0.371v3.2C41.751,4.884,42.353,4.786,42.714,4.626z"/>
			<path fill="#FFFFFF" d="M51.099,0.772v0.222c-0.293,0.004-0.492,0.026-0.599,0.064c-0.187,0.069-0.28,0.209-0.28,0.419
				c0,0.108,0.033,0.258,0.1,0.452c0.067,0.193,0.191,0.514,0.372,0.963l1.832,4.526l1.662-4.899c0.073-0.216,0.129-0.4,0.167-0.55
				c0.038-0.15,0.058-0.273,0.058-0.368c0-0.254-0.098-0.426-0.291-0.516c-0.115-0.052-0.303-0.081-0.565-0.09V0.772h2.393v0.222
				c-0.248,0.038-0.43,0.112-0.549,0.222c-0.179,0.165-0.355,0.497-0.531,0.997l-2.591,7.312h-0.176L49.21,2.38
				c-0.244-0.606-0.439-0.983-0.586-1.131c-0.146-0.148-0.361-0.233-0.643-0.254V0.772H51.099z"/>
			<path fill="#FFFFFF" d="M57.249,9.374V9.132c0.301-0.038,0.527-0.164,0.678-0.377C58.077,8.541,58.335,7.956,58.7,7l2.437-6.38
				h0.233l2.916,7.37c0.193,0.488,0.35,0.79,0.465,0.906c0.116,0.116,0.312,0.195,0.586,0.237v0.241h-2.976V9.132
				c0.343-0.034,0.562-0.075,0.661-0.123c0.1-0.048,0.148-0.167,0.148-0.357c0-0.064-0.019-0.175-0.057-0.335
				c-0.038-0.16-0.092-0.329-0.16-0.505l-0.469-1.25h-3.083c-0.304,0.851-0.485,1.37-0.544,1.557
				c-0.059,0.188-0.089,0.335-0.089,0.445c0,0.219,0.08,0.371,0.239,0.455c0.1,0.051,0.285,0.088,0.559,0.114v0.241H57.249z
				 M62.288,6.035l-1.34-3.58l-1.348,3.58H62.288z"/>
			<path fill="#FFFFFF" d="M66.798,0.772h6.615l0.062,2.209h-0.279c-0.137-0.694-0.312-1.146-0.523-1.355
				c-0.211-0.21-0.655-0.314-1.333-0.314h-0.651v6.652c0,0.501,0.07,0.812,0.211,0.931c0.141,0.12,0.449,0.199,0.926,0.237v0.241
				h-3.41V9.132C68.909,9.09,69.218,9,69.34,8.861c0.122-0.139,0.183-0.489,0.183-1.049v-6.5h-0.656
				c-0.648,0-1.088,0.104-1.322,0.311s-0.411,0.66-0.529,1.358h-0.285L66.798,0.772z"/>
			<path fill="#FFFFFF" d="M76.245,9.132c0.476-0.038,0.785-0.117,0.926-0.237c0.141-0.12,0.211-0.43,0.211-0.931V2.182
				c0-0.478-0.07-0.786-0.211-0.923c-0.141-0.138-0.449-0.219-0.926-0.245V0.772h3.462v0.241c-0.476,0.025-0.784,0.107-0.925,0.245
				c-0.142,0.137-0.212,0.445-0.212,0.923v5.783c0,0.501,0.07,0.812,0.212,0.931c0.141,0.12,0.449,0.199,0.925,0.237v0.241h-3.462
				V9.132z"/>
			<path fill="#FFFFFF" d="M83.817,1.737c0.721-0.766,1.605-1.149,2.656-1.149c1.056,0,1.943,0.385,2.663,1.155
				c0.78,0.834,1.171,1.944,1.171,3.332c0,1.409-0.404,2.531-1.211,3.364c-0.724,0.745-1.598,1.117-2.623,1.117
				c-1.096,0-2.006-0.413-2.73-1.238c-0.734-0.842-1.102-1.923-1.102-3.244C82.642,3.688,83.033,2.575,83.817,1.737z M84.692,8.107
				c0.484,0.654,1.08,0.981,1.785,0.981c0.689,0,1.279-0.318,1.77-0.956c0.49-0.637,0.735-1.655,0.735-3.056
				c0-1.417-0.248-2.442-0.743-3.072c-0.496-0.63-1.084-0.946-1.762-0.946c-0.702,0-1.296,0.327-1.782,0.98
				c-0.485,0.654-0.729,1.667-0.729,3.038C83.966,6.443,84.208,7.454,84.692,8.107z"/>
			<path fill="#FFFFFF" d="M93.213,9.132c0.483-0.055,0.794-0.176,0.931-0.365c0.138-0.188,0.206-0.625,0.206-1.31V1.73L94.19,1.521
				c-0.172-0.224-0.318-0.362-0.438-0.415c-0.12-0.053-0.301-0.084-0.54-0.092V0.772h1.997l4.516,6.22v-4.32
				c0-0.71-0.096-1.173-0.285-1.388c-0.126-0.139-0.404-0.229-0.834-0.271V0.772h2.748v0.241c-0.446,0.051-0.743,0.171-0.893,0.362
				c-0.148,0.19-0.223,0.626-0.223,1.308v6.843h-0.199l-5.176-7.128v5.061c0,0.71,0.093,1.173,0.279,1.389
				c0.122,0.139,0.395,0.234,0.817,0.285v0.241h-2.748V9.132z"/>
			<path fill="#FFFFFF" d="M105.891,4.616c-0.132,0.134-0.28,0.2-0.448,0.2c-0.184,0-0.334-0.072-0.451-0.216
				c-0.119-0.144-0.178-0.309-0.178-0.495c0-0.195,0.061-0.361,0.184-0.498c0.121-0.138,0.269-0.207,0.445-0.207
				c0.168,0,0.316,0.067,0.448,0.2c0.132,0.134,0.197,0.3,0.197,0.498C106.088,4.31,106.022,4.483,105.891,4.616z M104.999,9.272
				c-0.123-0.14-0.186-0.309-0.186-0.508c0-0.19,0.061-0.356,0.184-0.498c0.121-0.142,0.271-0.213,0.451-0.213
				c0.179,0,0.334,0.069,0.469,0.206c0.133,0.138,0.199,0.304,0.199,0.499c0,0.186-0.063,0.354-0.188,0.501
				c-0.126,0.148-0.294,0.222-0.503,0.222C105.265,9.481,105.123,9.412,104.999,9.272z"/>
			<path fill="#FFFFFF" d="M114.283,2.169c0.385,0.825,0.577,1.773,0.577,2.844c0,0.842-0.118,1.636-0.354,2.38
				c-0.446,1.401-1.217,2.101-2.313,2.101c-0.75,0-1.367-0.379-1.852-1.136c-0.518-0.808-0.776-1.906-0.776-3.295
				c0-1.092,0.173-2.031,0.52-2.818c0.469-1.071,1.188-1.606,2.159-1.606C113.12,0.639,113.8,1.149,114.283,2.169z M113.415,8.111
				c0.209-0.681,0.314-1.666,0.314-2.956c0-1.027-0.063-1.848-0.189-2.461c-0.236-1.142-0.678-1.712-1.325-1.712
				c-0.647,0-1.091,0.588-1.331,1.763c-0.125,0.626-0.188,1.451-0.188,2.474c0,0.96,0.065,1.728,0.194,2.303
				c0.244,1.074,0.701,1.611,1.371,1.611C112.821,9.132,113.205,8.792,113.415,8.111z"/>
			<path fill="#FFFFFF" d="M119.392,8.634c0.344,0.243,0.637,0.365,0.877,0.365c0.533,0,0.929-0.2,1.188-0.601
				c0.26-0.401,0.389-0.836,0.389-1.307c0-0.454-0.105-0.852-0.314-1.195c-0.354-0.581-0.952-0.871-1.794-0.871
				c-0.05,0-0.097,0.001-0.143,0.003c-0.046,0.002-0.099,0.007-0.16,0.016l-0.011-0.165c0.609-0.246,1.089-0.527,1.439-0.844
				c0.35-0.317,0.525-0.736,0.525-1.257c0-0.461-0.139-0.813-0.414-1.054c-0.276-0.241-0.592-0.362-0.945-0.362
				c-0.42,0-0.789,0.171-1.109,0.514c-0.174,0.186-0.363,0.474-0.564,0.863l-0.178-0.044c0.152-0.643,0.436-1.157,0.852-1.542
				c0.415-0.385,0.895-0.578,1.439-0.578c0.583,0,1.033,0.178,1.352,0.533c0.317,0.355,0.477,0.766,0.477,1.231
				c0,0.411-0.131,0.787-0.395,1.13c-0.148,0.195-0.379,0.413-0.691,0.654c0.366,0.173,0.659,0.376,0.881,0.609
				c0.414,0.444,0.622,1.007,0.622,1.688c0,0.804-0.284,1.513-0.854,2.127c-0.568,0.614-1.379,0.92-2.43,0.92
				c-0.469,0-0.797-0.077-0.986-0.232c-0.188-0.154-0.283-0.32-0.283-0.498c0-0.11,0.032-0.216,0.095-0.317
				c0.063-0.102,0.165-0.152,0.306-0.152C118.769,8.269,119.046,8.391,119.392,8.634z"/>
			<path fill="#FFFFFF" d="M126.298,6.035h2.891v0.812h-2.891V6.035z"/>
			<path fill="#FFFFFF" d="M133.808,8.622c0.354,0.273,0.625,0.409,0.815,0.409c0.439,0,0.822-0.215,1.149-0.645
				c0.328-0.429,0.492-0.957,0.492-1.583c0-1.096-0.525-1.885-1.578-2.368c-0.584-0.267-1.127-0.4-1.631-0.4
				c-0.084,0-0.137-0.003-0.157-0.009c-0.021-0.007-0.047-0.029-0.077-0.067c0.008-0.034,0.014-0.062,0.02-0.085
				c0.006-0.023,0.013-0.045,0.021-0.067l1.246-3.034h2.449c0.122,0,0.216-0.023,0.282-0.07c0.067-0.046,0.154-0.133,0.26-0.26
				l0.092,0.089l-0.439,1.174c-0.016,0.038-0.058,0.062-0.126,0.073c-0.069,0.01-0.144,0.016-0.224,0.016h-2.213l-0.486,1.111
				c0.625,0.119,1.082,0.23,1.373,0.336c0.477,0.178,0.875,0.44,1.195,0.787c0.273,0.3,0.482,0.638,0.623,1.013
				c0.141,0.374,0.211,0.771,0.211,1.19c0,0.935-0.3,1.716-0.9,2.342c-0.601,0.627-1.36,0.939-2.279,0.939
				c-0.373,0-0.675-0.04-0.904-0.121c-0.381-0.131-0.572-0.366-0.572-0.705c0-0.127,0.041-0.238,0.123-0.333
				c0.082-0.096,0.209-0.143,0.381-0.143C133.17,8.212,133.455,8.348,133.808,8.622z"/>
			<path fill="#FFFFFF" d="M140.616,9.228c1.394-1.607,2.34-2.787,2.84-3.539c0.498-0.752,0.748-1.486,0.748-2.201
				c0-0.625-0.152-1.102-0.457-1.43c-0.305-0.328-0.669-0.492-1.092-0.492c-0.521,0-0.944,0.211-1.268,0.634
				c-0.18,0.232-0.351,0.59-0.515,1.072l-0.245-0.057c0.189-0.973,0.513-1.648,0.968-2.027c0.455-0.379,0.944-0.568,1.466-0.568
				c0.643,0,1.164,0.225,1.562,0.675c0.397,0.451,0.597,1.001,0.597,1.652c0,0.693-0.216,1.361-0.645,2.004
				c-0.431,0.643-1.366,1.786-2.807,3.431h2.623c0.365,0,0.623-0.049,0.771-0.146c0.148-0.097,0.316-0.334,0.503-0.71l0.149,0.076
				l-0.635,1.771h-4.564V9.228z"/>
			<path fill="#FFFFFF" d="M148.806,9.228c1.395-1.607,2.341-2.787,2.84-3.539c0.498-0.752,0.748-1.486,0.748-2.201
				c0-0.625-0.152-1.102-0.457-1.43c-0.305-0.328-0.668-0.492-1.091-0.492c-0.522,0-0.944,0.211-1.268,0.634
				c-0.18,0.232-0.351,0.59-0.514,1.072l-0.246-0.057c0.19-0.973,0.514-1.648,0.969-2.027c0.455-0.379,0.943-0.568,1.465-0.568
				c0.644,0,1.164,0.225,1.562,0.675c0.398,0.451,0.598,1.001,0.598,1.652c0,0.693-0.216,1.361-0.647,2.004
				c-0.43,0.643-1.365,1.786-2.806,3.431h2.622c0.366,0,0.623-0.049,0.772-0.146c0.148-0.097,0.315-0.334,0.503-0.71l0.148,0.076
				l-0.635,1.771h-4.565V9.228z"/>
			<path fill="#FFFFFF" d="M160.136,0.7c0.002,0.01,0.003,0.035,0.003,0.073v7.643c0,0.326,0.078,0.533,0.235,0.622
				c0.156,0.089,0.449,0.142,0.879,0.159v0.178h-3.229v-0.19c0.461-0.025,0.762-0.095,0.902-0.21
				c0.142-0.114,0.212-0.362,0.212-0.743V2.353c0-0.203-0.022-0.357-0.068-0.463c-0.046-0.106-0.146-0.159-0.298-0.159
				c-0.099,0-0.227,0.031-0.385,0.092c-0.158,0.062-0.306,0.126-0.443,0.194V1.839l2.098-1.187h0.068
				C160.125,0.673,160.134,0.689,160.136,0.7z"/>
			<path fill="#FFFFFF" d="M165.295,6.035h2.891v0.812h-2.891V6.035z"/>
			<path fill="#FFFFFF" d="M172.183,3.972c-0.283-0.406-0.424-0.855-0.424-1.346c0-0.559,0.209-1.033,0.626-1.422
				c0.417-0.389,0.959-0.584,1.626-0.584c0.613,0,1.1,0.184,1.462,0.552c0.362,0.368,0.542,0.796,0.542,1.283
				c0,0.495-0.184,0.94-0.553,1.333c-0.214,0.225-0.559,0.483-1.035,0.775c0.648,0.533,1.111,0.998,1.392,1.393
				c0.28,0.396,0.42,0.862,0.42,1.399c0,0.609-0.206,1.121-0.62,1.536c-0.413,0.414-0.967,0.622-1.66,0.622
				c-0.62,0-1.152-0.191-1.596-0.574c-0.443-0.383-0.666-0.888-0.666-1.514c0-0.538,0.154-1.011,0.463-1.422
				c0.201-0.267,0.553-0.586,1.051-0.959C172.708,4.596,172.364,4.238,172.183,3.972z M175.01,8.746
				c0.225-0.27,0.337-0.608,0.337-1.014c0-0.46-0.119-0.833-0.357-1.118c-0.237-0.286-0.727-0.717-1.465-1.296
				c-0.328,0.229-0.565,0.524-0.714,0.888c-0.148,0.363-0.224,0.714-0.224,1.052c0,0.579,0.135,1.04,0.403,1.382
				c0.268,0.342,0.61,0.513,1.026,0.513C174.454,9.151,174.785,9.016,175.01,8.746z M174.833,3.606
				c0.236-0.326,0.354-0.718,0.354-1.179c0-0.401-0.111-0.742-0.334-1.023c-0.223-0.281-0.561-0.421-1.014-0.421
				c-0.351,0-0.641,0.123-0.869,0.368c-0.229,0.245-0.342,0.543-0.342,0.893c0,0.397,0.134,0.766,0.402,1.106
				c0.269,0.34,0.622,0.66,1.061,0.96C174.448,4.03,174.696,3.796,174.833,3.606z"/>
			<path fill="#FFFFFF" d="M181.004,8.634c0.345,0.243,0.637,0.365,0.877,0.365c0.533,0,0.929-0.2,1.189-0.601
				c0.259-0.401,0.389-0.836,0.389-1.307c0-0.454-0.105-0.852-0.314-1.195c-0.355-0.581-0.953-0.871-1.795-0.871
				c-0.049,0-0.096,0.001-0.143,0.003c-0.045,0.002-0.099,0.007-0.16,0.016l-0.011-0.165c0.609-0.246,1.089-0.527,1.439-0.844
				c0.351-0.317,0.526-0.736,0.526-1.257c0-0.461-0.139-0.813-0.414-1.054c-0.277-0.241-0.592-0.362-0.946-0.362
				c-0.419,0-0.788,0.171-1.108,0.514c-0.175,0.186-0.363,0.474-0.566,0.863l-0.177-0.044c0.152-0.643,0.436-1.157,0.852-1.542
				c0.414-0.385,0.895-0.578,1.439-0.578c0.582,0,1.033,0.178,1.351,0.533c0.317,0.355,0.478,0.766,0.478,1.231
				c0,0.411-0.132,0.787-0.395,1.13c-0.148,0.195-0.379,0.413-0.691,0.654c0.365,0.173,0.658,0.376,0.88,0.609
				c0.415,0.444,0.622,1.007,0.622,1.688c0,0.804-0.284,1.513-0.854,2.127c-0.569,0.614-1.379,0.92-2.431,0.92
				c-0.469,0-0.797-0.077-0.985-0.232c-0.189-0.154-0.283-0.32-0.283-0.498c0-0.11,0.031-0.216,0.094-0.317
				c0.063-0.102,0.166-0.152,0.307-0.152C180.382,8.269,180.659,8.391,181.004,8.634z"/>
			<path fill="#FFFFFF" d="M189.194,8.634c0.344,0.243,0.637,0.365,0.877,0.365c0.533,0,0.929-0.2,1.188-0.601
				c0.26-0.401,0.389-0.836,0.389-1.307c0-0.454-0.105-0.852-0.314-1.195c-0.354-0.581-0.952-0.871-1.794-0.871
				c-0.05,0-0.097,0.001-0.143,0.003c-0.046,0.002-0.099,0.007-0.16,0.016l-0.011-0.165c0.609-0.246,1.089-0.527,1.439-0.844
				c0.35-0.317,0.525-0.736,0.525-1.257c0-0.461-0.139-0.813-0.414-1.054c-0.276-0.241-0.592-0.362-0.945-0.362
				c-0.42,0-0.789,0.171-1.109,0.514c-0.174,0.186-0.363,0.474-0.564,0.863l-0.178-0.044c0.152-0.643,0.436-1.157,0.852-1.542
				c0.415-0.385,0.895-0.578,1.439-0.578c0.583,0,1.033,0.178,1.352,0.533c0.317,0.355,0.477,0.766,0.477,1.231
				c0,0.411-0.131,0.787-0.395,1.13c-0.148,0.195-0.379,0.413-0.691,0.654c0.366,0.173,0.659,0.376,0.881,0.609
				c0.414,0.444,0.622,1.007,0.622,1.688c0,0.804-0.284,1.513-0.854,2.127c-0.568,0.614-1.379,0.92-2.43,0.92
				c-0.469,0-0.797-0.077-0.986-0.232c-0.189-0.154-0.283-0.32-0.283-0.498c0-0.11,0.032-0.216,0.095-0.317
				c0.064-0.102,0.165-0.152,0.306-0.152C188.571,8.269,188.849,8.391,189.194,8.634z"/>
			<path fill="#FFFFFF" d="M199.132,0.7c0.002,0.01,0.003,0.035,0.003,0.073v7.643c0,0.326,0.078,0.533,0.235,0.622
				c0.156,0.089,0.449,0.142,0.879,0.159v0.178h-3.229v-0.19c0.461-0.025,0.762-0.095,0.902-0.21
				c0.142-0.114,0.212-0.362,0.212-0.743V2.353c0-0.203-0.023-0.357-0.068-0.463c-0.046-0.106-0.145-0.159-0.298-0.159
				c-0.099,0-0.227,0.031-0.385,0.092c-0.158,0.062-0.306,0.126-0.443,0.194V1.839l2.098-1.187h0.068
				C199.121,0.673,199.13,0.689,199.132,0.7z"/>
		</g>
	</g>
</g>
<g id="ヘッダーフッター">
</g>
</svg>
