<?xml version="1.0" encoding="utf-8"?>
<!-- Generator: Adobe Illustrator 16.0.0, SVG Export Plug-In . SVG Version: 6.00 Build 0)  -->
<!DOCTYPE svg PUBLIC "-//W3C//DTD SVG 1.1//EN" "http://www.w3.org/Graphics/SVG/1.1/DTD/svg11.dtd">
<svg version="1.1" id="レイヤー_1" xmlns="http://www.w3.org/2000/svg" xmlns:xlink="http://www.w3.org/1999/xlink" x="0px"
	 y="0px" width="356px" height="356px" viewBox="0 0 356 356" enable-background="new 0 0 356 356" xml:space="preserve">
<g>
	<rect fill="#D7000F" width="356.086" height="356.086"/>
	<g>
		<path fill="#FFFFFF" d="M107.652,216.621c-2.105-5.618-6.459-2.955-8.477-3.229c-0.049-0.008-0.102-0.008-0.152-0.013
			c-0.137-10.198-0.364-34.971-0.364-39.969c0-4.646,2.704-5.777,2.323-8.428c-0.296-2.039-1.277-3.945-0.874-7.847
			c0.414-4.012,0.578-3.326,0.578-4.939c0-1.615-0.3-4.443-3.39-4.443c-2.762,0-4.17,3.093-3.77,7.664
			c0.553,6.263,0.271,7.801,0.137,12.245c0,0-0.137,20.442-0.137,29.855c0,3.865,0.149,10.1,0.32,15.971
			c-2.307,0.178-5.031,0.441-7.987,0.578c-1.772,0.085-5.188,0.008-8.944-0.029c-0.167-3.199-0.51-7.016-0.701-8.827
			c-0.58-5.524,0.062-22.493,0.062-22.493c0.867-3.201,1.449-4.362,0.867-9.014c-0.578-4.65-2.18-4.298-4.938-4.359
			c-3.506-0.082-2.619,5.704-2.619,9.484c0,3.772,0.292,5.337,0,10.278c-0.289,4.947,1.28,7.617,2.33,10.758
			c0.578,1.742,0.289,2.036,0.289,5.525c0,2.136,0.025,5.986,0.044,8.639c-1.983,0.021-3.923,0.067-5.626,0.176
			c-4.062,0.258-6.59,0.938-13.182,0.805c-3.239-0.067-4.437,0.271-5.783,1.75c-1.346,1.48-0.402,4.17,2.426,5.109
			c2.295,0.77,3.691-0.646,6.722-0.803c2.554-0.137,7.821-0.111,10.758,0.126c0.071,0.011,2.263-0.134,4.911-0.312
			c0.011,0.601,0.02,1.254,0.02,1.948c0,3.216-1.553,6.351-0.578,9.594c0.87,2.9,2.323,3.486,4.066,2.9
			c1.746-0.577,2.617-3.774,2.324-5.811c-0.29-2.034-0.414-1.456-0.994-3.494c-0.232-0.795-0.285-2.833-0.299-5.438
			c2.645-0.176,4.807-0.325,4.807-0.325c2.291-0.137,7.672,0.137,10.764,0.137c0.479,0,0.977,0.039,1.482,0.101
			c0.119,3.72,0.228,6.644,0.27,7.698c0.131,3.494-0.331,5.246-0.666,8.91c-0.281,3.061,0.742,5.848,2.654,5.491
			c1.301-0.237,3.221,0.344,3.782-4.067c0.38-2.996-0.526-2.283-0.526-7.104c0-3.658-0.197-5.886-0.361-10.013
			c1.064,0.159,2.146,0.271,3.232,0.214c2.443-0.113,2.379,0.635,3.787,0.124C108.168,221.049,108.057,217.699,107.652,216.621z"/>
		<g>
			<path fill="#FFFFFF" d="M134.955,183.534c-2.061,0.312-3.225,0.666-3.355,3.231c-0.138,2.551-0.274,3.49,0.533,4.706
				c0.805,1.202,0.941,2.015,2.553,1.745c1.62-0.27,2.825-1.079,3.635-2.961c0.809-1.883,1.346-1.879,0.537-3.765
				C138.051,184.609,136.705,183.261,134.955,183.534z"/>
			<path fill="#FFFFFF" d="M137.134,197.962c-1.612,0.136-3.538,5.723-3.935,7.339c-0.403,1.615-0.664,3.116-0.801,6.342
				c-0.131,3.229,0.676,2.691-1.479,7.67c-2.149,4.973-2.689,5.38-3.901,6.998c-1.206,1.613-4.843,6.586-7.396,6.988
				c-2.557,0.41-3.765,0.137-4.978,0.137c-1.214,0-2.016-0.137-2.554,1.613c-0.538,1.754-0.538,3.367-0.135,4.706
				c0.402,1.349,0.27,2.155,2.688,2.292c2.421,0.129,4.134,0.461,6.325-0.537c4.814-2.204,9.174-6.562,10.76-11.031
				c0.85-2.405,1.344-3.365,1.747-4.98c0,0-0.134,1.35,0.271,3.23c0,0,1.342,4.98,2.558,6.996c1.205,2.015,3.228,4.572,5.647,5.922
				c2.419,1.339,3.035,1.736,5.779,1.741c3.365,0.014,6.907-0.885,9.465-3.04c2.555-2.148,4.213-3.63,5.604-6.639
				c1.165-2.537,1.969-3.871,2.421-9.017c0.34-3.889,0.539-7.532-0.139-8.475c-0.672-0.938-1.744-0.671-1.877,0.669
				c-0.137,1.352-0.405,2.426-1.348,5.656c-0.944,3.229-1.455,5.334-3.898,7.525c-2.705,2.433-4.983,3.77-7.135,4.043
				c-2.147,0.264-4.972,0.264-6.454-1.078c-1.481-1.35-3.768-2.828-4.575-5.381c-0.803-2.555-1.209-3.904-1.209-6.998
				c0-3.092-1.031-7.943,0.541-14.258c0.647-2.616,0.537-5.914,0-7.397C138.7,197.835,138.749,197.824,137.134,197.962z"/>
		</g>
		<path fill="#FFFFFF" d="M262.471,235.316c-1.211-0.805-2.688-0.268-5.244,0.408c-2.557,0.67-7.803,0.129-12.912-0.539
			c-5.108-0.674-14.26-2.692-19.907-4.576c-5.648-1.881-12.241-3.762-17.488-6.053c-3.478-1.516-7.223-3.31-11.295-5.107
			c0.044-1.758,0.031-3.731,0.026-5.659c2.575-0.335,5.055-0.78,6.965-0.935c3.229-0.266,9.01-2.154,14.393-3.228
			c5.382-1.079,13.584-4.707,20.443-6.862c6.863-2.154,15.472-7.127,20.984-11.294c5.517-4.173,6.458-8.211,6.458-12.381
			c0-4.168-2.113-7.956-5.922-10.491c-4.03-2.693-6.99-4.169-11.294-5.381c-4.305-1.204-13.721-2.955-21.793-3.227
			c-5.784-0.192-16.542-0.13-22.06,0c-5.514,0.135-9.28,0.809-13.452,1.208c-4.169,0.405-5.784,1.216-9.682,1.881
			c-3.904,0.676-7.264,2.292-10.763,3.504c-3.497,1.213-4.976,2.689-6.187,4.434c-1.212,1.75-0.672,3.228-0.272,4.846
			c0.407,1.612,1.889,2.016,3.636,1.884c1.745-0.137,2.015-1.213,3.902-2.826c1.88-1.612,3.496-2.69,5.779-3.367
			c2.289-0.665,4.914-1.899,8.34-2.553c1.555-0.291,1.779-1.301,3.904-2.154c1.744-0.694,4.986-1.246,9.414-1.613
			c6.392-0.526,21.521-0.197,25.557,0c5.385,0.273,11.973,0.808,17.351,2.29c4.882,1.341,9.551,3.493,12.51,5.379
			c2.96,1.881,3.768,5.112,3.634,8.074c-0.138,2.958-3.634,6.451-5.785,8.603c-2.152,2.155-10.088,6.322-15.736,8.748
			c-5.65,2.418-22.462,8.066-32.149,9.95c-2.968,0.581-5.639,0.978-8.115,1.249c0.052-1.354,0.139-2.541,0.312-3.398
			c0.673-3.365,0.947-11.168,2.02-17.622c0.939-5.628,0.939-9.281,1.882-10.628c0.941-1.345,1.483-3.899,0.81-5.247
			c-0.674-1.342-2.021-2.957-3.764-2.957c-1.756,0-3.095,1.615-3.635,3.092c-0.536,1.478-1.612,6.185-1.612,8.34
			c0,2.151-0.539,5.656,0,8.336c0.54,2.692,0.939,1.078,1.076,3.102c0.132,2.019-0.273,4.3-0.404,6.988
			c-0.132,2.694-0.808,7.672-0.808,8.609c0,0.258-0.04,0.897-0.102,1.738c-3.765,0.215-7.093,0.152-10.392,0.016
			c-0.526-0.028-1.016-0.062-1.502-0.108c-2.35-1.794-4.804-3.837-6.03-5.138c-1.386-1.471-5.516,1.205-6.188,2.418
			c-0.113,0.207-0.178,0.443-0.194,0.713c-0.35,0.358-0.479,0.941-0.479,1.845c0,1.884,1.749,2.552,3.905,3.228
			c0.307,0.094,0.682,0.181,1.104,0.264c0.445,0.307,0.92,0.621,1.448,0.947c5.647,3.496,7.168,4.456,12.241,6.998
			c1.29,0.64,3.091,1.646,5.1,2.738c-0.133,3.855-0.207,8.381-0.125,10.309c0.135,3.089,0,4.434,0.673,5.381
			c0.677,0.938,1.753,2.018,2.829,0.805c1.073-1.213,1.566-2.965,1.747-4.844c0.269-2.823-0.674-1.744-0.674-4.436
			c0-1.67,0.05-2.98,0.186-4.789c1.658,0.814,3.301,1.559,4.79,2.098c4.843,1.742,11.165,4.797,17.084,6.186
			c6.862,1.615,16.008,4.709,23.674,5.785c7.67,1.076,17.887,1.75,20.578,0.939c2.692-0.806,3.231-1.345,2.823-2.82
			C263.679,236.93,263.687,236.127,262.471,235.316 M191.138,214.174c-0.092,1.018-0.173,2.011-0.255,2.885
			c-1.606-0.934-3.266-1.98-4.799-2.931c1.151,0.046,2.421,0.075,4.289,0.075C190.626,214.203,190.883,214.185,191.138,214.174z"/>
		<path fill="#FFFFFF" d="M309.521,210.205c0,0-0.862,0.266-1.59,1.288c-1.453,2.028-1.747,1.741-4.359,4.939
			c-0.771,0.938-1.388,1.646-2.009,2.214c0.161-1.615,0.263-3.161,0.263-4.539c0-6.396-0.286-10.756-3.192-14.244
			c-2.91-3.488-3.782-5.525-8.43-5.525c-1.721,0-3.487,1.193-5.053,2.631c-2.066-0.963-4.193-2.243-6.893-1.825
			c-3.731,0.57-7.821,2.977-9.565,6.462c-1.748,3.49-2.617,5.235-2.908,10.172c-0.289,4.946-0.578,9.594,0.583,14.244
			c1.161,4.655,3.488,10.465,7.267,13.08c3.777,2.619,5.961,4.504,10.322,4.212c0.626-0.041,9.338,1.021,13.134-6.567
			c1.313-2.63,2.382-6.567,3.086-9.736c3.736-1.736,5.796-4.072,7.466-6.219c2.033-2.615,2.902-4.067,2.902-7.27
			C310.544,211.927,309.521,210.205,309.521,210.205 M295.144,203.644c3.09,5.922,2.53,13.21,1.959,17.021
			c-0.655,0.134-1.388,0.271-2.252,0.421c-5.231,0.87-11.334-0.872-11.625-6.105c-0.29-5.233,1.163-11.047,4.069-12.5
			C290.203,201.027,293.519,200.531,295.144,203.644 M290.52,234.553c-6.972,3.205-13.397,0.482-16.886-5.621
			c-3.488-6.104-3.488-8.141-3.197-14.246c0.209-4.418,0.292-6.682,3.197-9.59c1.656-1.658,4.297-1.881,6.404-1.764
			c-1.352,2.786-2.145,6.477-1.755,11.354c0.478,5.979,2.62,10.467,6.397,12.211c4.676,2.157,6.616,2.73,10.354,1.846
			C294.055,230.772,293.116,233.368,290.52,234.553z"/>
	</g>
	<g>
		<path d="M64.332,120.078c0-0.84,0.072-1.261,0.641-1.261c1.147,0,2.943,0.312,2.943,2.289c0,2.214-1.628,2.305-3.262,2.305
			c-0.237,0-0.322-0.036-0.322-0.385V120.078 M62.166,123.928c0,3.11-0.125,3.712-0.125,4.078c0,0.769-0.862,0.804-1.208,0.844
			c-0.403,0.033-0.571,0.132-0.571,0.369c0,0.199,0.057,0.22,0.403,0.22h2.512c1.61,0,1.997,0.074,2.634,0.074
			c0.203,0,0.295-0.057,0.295-0.259c0-0.218-0.183-0.293-1.244-0.404c-0.367-0.04-0.529-0.364-0.529-1.301v-2.028
			c0-1.452,0.072-1.52,0.619-1.52c0.679,0,1.084,0.25,2.764,3.639c0.108,0.222,0.479,0.921,0.809,1.593
			c0.071,0.148,0.217,0.207,0.348,0.207h3.238c0.168,0,0.186-0.058,0.186-0.207c0-0.127-0.072-0.144-0.805-0.35
			c-0.385-0.108-0.809-0.382-1.117-0.898l-2.312-3.951c-0.105-0.181-0.16-0.272-0.16-0.42c0-0.368,2.182-0.426,2.182-2.804
			c0-1.94-1.926-2.579-3.536-2.579c-0.788,0-2.526,0.074-2.821,0.074c-0.348,0-2.143-0.074-2.931-0.074
			c-0.271,0-0.364,0.052-0.364,0.308c0,0.223,0.055,0.237,1.1,0.351c0.326,0.035,0.637,0.272,0.637,0.826V123.928z"/>
		<path d="M88.41,119.914c0-0.751-0.127-0.988-0.88-1.023c-0.457-0.021-0.547-0.114-0.547-0.334c0-0.214,0.09-0.325,0.511-0.325
			c0.438,0,0.93,0.074,1.832,0.074c1.48,0,1.703-0.074,2.305-0.074c0.438,0,0.514,0.052,0.514,0.216
			c0,0.165-0.145,0.294-0.565,0.329c-0.937,0.074-1.008,0.185-1.008,0.877v8.061c0,0.952,0.329,0.985,0.987,1.135
			c0.387,0.09,0.604,0.146,0.604,0.436c0,0.17-0.036,0.227-0.418,0.227c-0.498,0-1.412-0.074-2.751-0.074
			c-1.042,0-1.61,0.074-2.118,0.074c-0.276,0-0.318-0.132-0.318-0.346c0-0.261,0.08-0.284,0.811-0.317
			c0.622-0.04,1.043-0.052,1.043-1.45V119.914z"/>
		<path d="M114.395,120.521c0,0.197-0.074,0.289-0.236,0.289c-0.463,0-0.404-2.179-2.604-2.179c-1.649,0-2.123,1.064-2.123,1.902
			c0,2.036,5.806,1.743,5.806,5.695c0,1.303-0.625,3.535-4.123,3.535c-1.588,0-3.42-0.382-3.42-1.17
			c0-0.824,0.013-2.303,0.437-2.303c0.422,0,0.239,0.879,0.88,1.663c0.438,0.548,1.465,1.152,2.58,1.152
			c1.543,0,2.217-0.937,2.217-1.881c0-2.81-5.692-2.33-5.692-6.157c0-1.868,1.226-3.094,3.806-3.094
			c1.322,0,2.475,0.259,2.475,0.749V120.521z"/>
		<path d="M139.737,118.556c1.757,0,1.153-0.833,1.647-0.833c0.146,0,0.217,0.106,0.217,0.509c0,2.637-0.107,2.817-0.348,2.817
			c-0.144,0-0.216-0.105-0.271-0.291c-0.277-1.175-0.644-1.505-3.188-1.505c-0.77,0-0.879,0.075-0.879,0.442v7.875
			c0,0.892,0.094,1.279,0.607,1.279c1.076,0,1.386,0.146,1.386,0.383c0,0.258-0.181,0.28-0.528,0.28
			c-0.565,0-1.923-0.074-2.488-0.074c-0.881,0-1.775,0.141-2.655,0.141c-0.368,0-0.405-0.089-0.405-0.237
			c0-0.403,0.955-0.237,1.504-0.493c0.199-0.092,0.422-0.733,0.422-1.041v-7.494c0-0.987-0.039-1.021-1.412-1.062
			c-2.655-0.067-2.727,2.016-3.334,2.016c-0.218,0-0.256-0.088-0.256-0.202c0-0.459,0.493-1.665,0.826-2.673
			c0.162-0.495,0.237-0.565,0.438-0.565c0.493,0-0.186,0.728,1.794,0.728H139.737z"/>
		<path d="M158.541,123.869c0-3.772,1.541-5.271,3.7-5.271c2.163,0,3.699,1.499,3.699,5.271c0,3.299-1.536,5.274-3.699,5.274
			C160.082,129.144,158.541,127.168,158.541,123.869 M156.197,123.869c0,3.04,2.416,5.894,6.044,5.894s6.044-2.854,6.044-5.894
			c0-3.042-2.416-5.896-6.044-5.896S156.197,120.827,156.197,123.869z"/>
		<path d="M186.926,120.078c0-0.84,0.072-1.261,0.64-1.261c1.155,0,2.949,0.312,2.949,2.289c0,2.214-1.628,2.305-3.261,2.305
			c-0.234,0-0.328-0.036-0.328-0.385V120.078 M184.769,123.928c0,3.11-0.131,3.712-0.131,4.078c0,0.769-0.862,0.804-1.214,0.844
			c-0.397,0.033-0.565,0.132-0.565,0.369c0,0.199,0.055,0.22,0.4,0.22h2.512c1.609,0,1.999,0.074,2.639,0.074
			c0.198,0,0.292-0.057,0.292-0.259c0-0.218-0.181-0.293-1.241-0.404c-0.369-0.04-0.534-0.364-0.534-1.301v-2.028
			c0-1.452,0.072-1.52,0.619-1.52c0.682,0,1.084,0.25,2.767,3.639c0.111,0.222,0.475,0.921,0.806,1.593
			c0.072,0.148,0.224,0.207,0.348,0.207h3.24c0.166,0,0.187-0.058,0.187-0.207c0-0.127-0.072-0.144-0.806-0.35
			c-0.385-0.108-0.805-0.382-1.119-0.898l-2.307-3.951c-0.111-0.181-0.162-0.272-0.162-0.42c0-0.368,2.178-0.426,2.178-2.804
			c0-1.94-1.921-2.579-3.536-2.579c-0.787,0-2.526,0.074-2.82,0.074c-0.346,0-2.14-0.074-2.931-0.074
			c-0.274,0-0.362,0.052-0.362,0.308c0,0.223,0.053,0.237,1.097,0.351c0.328,0.035,0.646,0.272,0.646,0.826V123.928z"/>
		<path d="M215.951,123.905c0.017,0.054,0.035,0.129,0.035,0.204c0,0.107-0.531,0.107-1.243,0.107c-0.608,0-1.321-0.017-1.321-0.148
			c0-0.141,0.072-0.306,0.147-0.488l1.009-2.276c0.051-0.143,0.145-0.255,0.216-0.255c0.039,0,0.109,0,0.15,0.092L215.951,123.905
			 M215.729,117.353h-0.221c-0.42,1.116-0.858,2.396-1.576,3.916l-3.13,6.705c-0.165,0.347-0.438,0.661-0.805,0.876
			c-0.457,0.271-0.974,0.197-0.974,0.511c0,0.13,0.132,0.152,0.312,0.152c0.806,0,1.36-0.074,2.091-0.074
			c0.676,0,1.042,0.074,1.262,0.074c0.403,0,0.567-0.074,0.567-0.312c0-0.273-0.366-0.329-0.549-0.351
			c-0.438-0.04-0.859-0.092-0.859-0.624c0-0.417,0.511-1.466,0.841-2.228c0.295-0.738,0.46-0.977,0.914-0.977
			c1.267,0,1.871,0.074,2.327,0.074c0.402,0,0.459,0.059,0.494,0.186l0.752,2.434c0.073,0.259,0.187,0.476,0.187,0.66
			c0,0.325-0.354,0.435-0.771,0.475c-0.311,0.033-0.478,0.132-0.478,0.331c0,0.237,0.107,0.259,0.275,0.259h2.199
			c1.277,0,1.703,0.074,2.328,0.074c0.36,0,0.433-0.022,0.433-0.152c0-0.194-0.433-0.194-0.948-0.511
			c-0.605-0.364-0.681-0.57-1.229-1.92L215.729,117.353z"/>
		<path d="M237.7,120.042c0-0.844-0.219-0.975-1.48-1.152c-0.256-0.04-0.292-0.074-0.292-0.334c0-0.129,0.036-0.25,0.292-0.25
			c2.602,0,3.005-0.022,3.698-0.074l4.433,5.416c1.353,1.646,1.997,2.165,2.253,2.417c0.075,0.075,0.106,0.093,0.145,0.093
			c0.055,0,0.094-0.039,0.094-0.073v-5.877c0-1.12-0.132-1.246-1.464-1.317c-0.333-0.021-0.384-0.095-0.384-0.311
			c0-0.222,0.051-0.387,0.475-0.387c0.418,0,1.117,0.075,1.705,0.075c0.986,0,1.499-0.075,1.79-0.075
			c0.295,0,0.421,0.075,0.421,0.289c0,0.183-0.036,0.227-1.005,0.409c-0.496,0.092-0.566,0.295-0.623,1.283
			c-0.093,1.772-0.146,3.84-0.146,5.946v3.643c0,0.295-0.091,0.37-0.202,0.37c-0.33,0-0.531-0.532-1.354-1.466l-7.474-8.384
			c-0.039-0.041-0.111-0.02-0.111,0.033v3.392c0,1.447,0.072,2.598,0.072,3.692c0,0.901,0.223,1.193,1.376,1.45
			c0.514,0.111,0.694,0.197,0.694,0.351c0,0.312-0.181,0.312-0.509,0.312c-0.66,0-1.3-0.074-1.982-0.074
			c-0.766,0-1.238,0.074-1.754,0.074c-0.312,0-0.55,0-0.55-0.28c0-0.197,0.22-0.35,0.748-0.383c0.679-0.052,0.989-0.163,1.01-1.169
			c0.021-1.012,0.125-3.775,0.125-3.992V120.042z"/>
		<path d="M273.52,118.556c1.761,0,1.153-0.833,1.646-0.833c0.149,0,0.223,0.106,0.223,0.509c0,2.637-0.108,2.817-0.346,2.817
			c-0.147,0-0.225-0.105-0.278-0.291c-0.271-1.175-0.641-1.505-3.188-1.505c-0.766,0-0.874,0.075-0.874,0.442v7.875
			c0,0.892,0.09,1.279,0.601,1.279c1.084,0,1.394,0.146,1.394,0.383c0,0.258-0.184,0.28-0.529,0.28c-0.57,0-1.928-0.074-2.492-0.074
			c-0.877,0-1.779,0.141-2.658,0.141c-0.361,0-0.397-0.089-0.397-0.237c0-0.403,0.952-0.237,1.499-0.493
			c0.202-0.092,0.42-0.733,0.42-1.041v-7.494c0-0.987-0.035-1.021-1.41-1.062c-2.653-0.067-2.726,2.016-3.332,2.016
			c-0.222,0-0.258-0.088-0.258-0.202c0-0.459,0.496-1.665,0.828-2.673c0.16-0.495,0.237-0.565,0.437-0.565
			c0.495,0-0.183,0.728,1.796,0.728H273.52z"/>
		<path d="M291.594,119.947c0-0.437,0-1.044-0.583-1.096c-0.938-0.088-1.012-0.163-1.012-0.369c0-0.214,0.074-0.25,0.369-0.25
			c0.787,0,1.609,0.074,3.847,0.074c1.169,0,2.415-0.074,3.99-0.074c0.366,0,0.402,0.036,0.402,1.517c0,0.7,0,1.12-0.276,1.12
			c-0.291,0-0.31-0.533-0.676-1.138c-0.328-0.544-1.357-0.805-2.911-0.805c-0.806,0-0.844,0.057-0.844,1.063v2.833
			c0,0.366,0.075,0.498,1.172,0.498c1.047,0,1.282-0.239,1.522-0.606c0.288-0.438,0.441-1.024,0.712-1.024
			c0.279,0,0.258,0.48,0.258,0.534c0,0.42-0.149,1.409-0.149,2.105c0,0.751,0.075,1.075,0.075,1.226c0,0.16-0.055,0.258-0.276,0.258
			c-0.218,0-0.258-0.075-0.454-0.932c-0.13-0.552-0.516-0.942-2.127-0.942c-0.678,0-0.751,0.095-0.751,0.55v3.517
			c0,0.681,0.881,0.804,1.722,0.804c0.769,0,1.026-0.123,1.393-0.324c1.28-0.717,1.28-1.833,1.704-1.833
			c0.235,0,0.235,0.182,0.235,0.347c0,0.261-0.22,0.974-0.295,1.408c-0.069,0.402-0.199,1.105-0.346,1.105
			c-1.576,0-2.268-0.074-2.985-0.074h-3.918c-0.897,0-1.153,0.074-1.3,0.074c-0.238,0-0.423-0.057-0.423-0.28
			c0-0.361,0.404-0.361,0.555-0.383c1.205-0.15,1.37-0.204,1.37-2.033V119.947z"/>
	</g>
</g>
<g>
</g>
<g>
</g>
<g>
</g>
<g>
</g>
<g>
</g>
<g>
</g>
<g>
</g>
<g>
</g>
<g>
</g>
<g>
</g>
<g>
</g>
<g>
</g>
<g>
</g>
<g>
</g>
<g>
</g>
</svg>
