<?xml version="1.0" encoding="utf-8"?>
<!-- Generator: Adobe Illustrator 16.0.0, SVG Export Plug-In . SVG Version: 6.00 Build 0)  -->
<!DOCTYPE svg PUBLIC "-//W3C//DTD SVG 1.1//EN" "http://www.w3.org/Graphics/SVG/1.1/DTD/svg11.dtd">
<svg version="1.1" xmlns="http://www.w3.org/2000/svg" xmlns:xlink="http://www.w3.org/1999/xlink" x="0px" y="0px" width="74px"
	 height="86px" viewBox="0 0 74 86" enable-background="new 0 0 74 86" xml:space="preserve">
<g id="BG" display="none">
	<rect x="-335" y="-5" display="inline" fill="#CCCCCC" width="1216" height="594"/>
</g>
<g id="Homeヘッダーフッター青山">
</g>
<g id="Homeヘッダーフッター銀座">
</g>
<g id="Homeヘッダーフッターのコピー">
</g>
<g id="homeフッター1">
	<g>
		<g>
			<path fill="#FFFFFF" d="M7.061,1.25C7.781,0.483,8.666,0.1,9.717,0.1c1.057,0,1.943,0.387,2.664,1.156
				c0.779,0.834,1.17,1.943,1.17,3.332c0,1.41-0.404,2.531-1.211,3.365c-0.723,0.744-1.598,1.117-2.623,1.117
				c-1.096,0-2.006-0.414-2.73-1.238C6.252,6.991,5.885,5.909,5.885,4.588C5.885,3.2,6.277,2.088,7.061,1.25z M7.936,7.62
				C8.42,8.274,9.016,8.6,9.721,8.6c0.689,0,1.279-0.318,1.77-0.955s0.736-1.656,0.736-3.057c0-1.418-0.248-2.441-0.744-3.072
				s-1.084-0.945-1.762-0.945c-0.701,0-1.295,0.326-1.781,0.98s-0.73,1.666-0.73,3.037C7.209,5.956,7.451,6.965,7.936,7.62z"/>
			<path fill="#FFFFFF" d="M20.59,6.27c0.197,0.584,0.43,1.051,0.695,1.396c0.465,0.605,1.041,0.908,1.729,0.908
				c0.373,0,0.695-0.131,0.967-0.393c0.271-0.264,0.408-0.629,0.408-1.1c0-0.422-0.137-0.791-0.41-1.104
				c-0.18-0.199-0.555-0.498-1.129-0.895l-0.998-0.693c-0.301-0.211-0.541-0.424-0.719-0.641c-0.332-0.41-0.498-0.863-0.498-1.357
				c0-0.656,0.197-1.203,0.588-1.639C21.615,0.319,22.135,0.1,22.783,0.1c0.266,0,0.588,0.074,0.963,0.219
				c0.375,0.146,0.59,0.221,0.643,0.221c0.145,0,0.244-0.039,0.299-0.115c0.057-0.076,0.1-0.184,0.129-0.324h0.24l0.258,2.768
				h-0.281c-0.189-0.832-0.496-1.414-0.916-1.744c-0.422-0.33-0.838-0.496-1.248-0.496c-0.32,0-0.6,0.105-0.838,0.314
				s-0.357,0.5-0.357,0.873c0,0.334,0.092,0.619,0.275,0.857c0.182,0.24,0.465,0.492,0.85,0.754l1.027,0.705
				c0.643,0.439,1.096,0.844,1.361,1.213c0.26,0.373,0.389,0.812,0.389,1.32c0,0.682-0.23,1.25-0.693,1.707
				s-1.055,0.686-1.773,0.686c-0.363,0-0.74-0.076-1.135-0.229S21.355,8.6,21.297,8.6c-0.137,0-0.229,0.047-0.275,0.141
				c-0.049,0.092-0.08,0.191-0.096,0.297H20.67L20.32,6.27H20.59z"/>
			<path fill="#FFFFFF" d="M32.365,8.885v-0.24c0.301-0.037,0.525-0.164,0.676-0.377c0.15-0.215,0.408-0.799,0.773-1.756
				l2.438-6.379h0.234L39.4,7.502c0.195,0.488,0.35,0.789,0.467,0.906c0.115,0.115,0.311,0.193,0.584,0.236v0.24h-2.975v-0.24
				c0.342-0.033,0.562-0.074,0.662-0.123c0.098-0.049,0.148-0.168,0.148-0.357c0-0.062-0.02-0.174-0.059-0.334
				c-0.037-0.16-0.09-0.33-0.16-0.506l-0.467-1.25h-3.084c-0.305,0.85-0.486,1.369-0.545,1.557s-0.088,0.336-0.088,0.445
				c0,0.219,0.08,0.371,0.24,0.455c0.098,0.051,0.285,0.088,0.559,0.113v0.24H32.365z M37.404,5.547l-1.342-3.58l-1.348,3.58H37.404
				z"/>
			<path fill="#FFFFFF" d="M46.703,8.665c0.477-0.043,0.771-0.137,0.885-0.283c0.115-0.146,0.172-0.496,0.172-1.047V1.696
				c0-0.471-0.064-0.775-0.191-0.912c-0.127-0.139-0.416-0.225-0.865-0.258v-0.24h3.33v0.24c-0.457,0.025-0.752,0.109-0.885,0.254
				c-0.135,0.145-0.201,0.449-0.201,0.914v2.664c0.721-0.684,1.311-1.264,1.768-1.742c0.82-0.865,1.23-1.42,1.23-1.666
				c0-0.172-0.07-0.287-0.209-0.342S51.4,0.526,51.145,0.526v-0.24h3.064v0.24c-0.373,0.041-0.668,0.121-0.883,0.24
				c-0.217,0.119-0.516,0.379-0.896,0.781l-2.283,2.354l2.787,3.344c0.506,0.602,0.852,0.977,1.035,1.127
				c0.184,0.148,0.451,0.246,0.807,0.293v0.221h-3.578V8.665c0.322-0.014,0.543-0.043,0.656-0.086
				c0.115-0.045,0.172-0.133,0.172-0.266c0-0.07-0.037-0.182-0.111-0.33s-0.191-0.32-0.352-0.516l-2.254-2.705l-0.361,0.373v2.352
				c0,0.484,0.066,0.791,0.197,0.92c0.133,0.129,0.418,0.215,0.861,0.258v0.221h-3.303V8.665z"/>
			<path fill="#FFFFFF" d="M60.963,8.885v-0.24c0.301-0.037,0.527-0.164,0.678-0.377c0.15-0.215,0.408-0.799,0.773-1.756
				l2.438-6.379h0.232L68,7.502c0.193,0.488,0.35,0.789,0.465,0.906c0.115,0.115,0.311,0.193,0.586,0.236v0.24h-2.977v-0.24
				c0.344-0.033,0.562-0.074,0.662-0.123s0.148-0.168,0.148-0.357c0-0.062-0.02-0.174-0.057-0.334
				c-0.039-0.16-0.092-0.33-0.16-0.506l-0.469-1.25h-3.084c-0.303,0.85-0.484,1.369-0.543,1.557c-0.061,0.188-0.09,0.336-0.09,0.445
				c0,0.219,0.08,0.371,0.24,0.455c0.1,0.051,0.285,0.088,0.559,0.113v0.24H60.963z M66.002,5.547l-1.34-3.58l-1.348,3.58H66.002z"
				/>
		</g>
		<g>
			<path fill="#FFFFFF" d="M26.691,29.021c0,0,0,0.039,0.012,0.051c0.164,0.885,0.504,1.834,0.867,2.666
				c0.877,1.949,2.316,3.004,4.482,3.652v0.105c-0.246,0.064-0.867,0.232-1.346,1.014c-2.553-1.574-3.746-3.705-4.191-7.164
				c-0.15,1.625-0.514,3.264-1.404,4.576c-1.357,2.029-3.146,2.602-3.861,2.809l-0.047-0.092c1.686-0.922,3.078-2.43,3.77-4.367
				c0.361-1.041,0.607-2.133,0.701-3.25h-2.809c-0.094,0-0.844,0-1.381,0.117l-0.234-0.52c0.924,0.09,1.779,0.09,1.803,0.09h2.656
				c0.012-0.207,0.059-0.701,0.059-1.352c0-0.494-0.047-1.613-0.258-2.289l1.334,0.404c0.141,0.039,0.211,0.09,0.211,0.195
				c0,0.143-0.164,0.271-0.398,0.441c0,0.832-0.047,1.611-0.094,2.6h3.207l0.527-0.676c0.117-0.143,0.129-0.156,0.188-0.156
				c0.047,0,0.094,0.025,0.211,0.131l0.783,0.676c0.047,0.039,0.117,0.117,0.117,0.195c0,0.143-0.117,0.143-0.176,0.143H26.691z"/>
			<path fill="#FFFFFF" d="M44.943,25.771l0.398-0.391c0.012-0.014,0.082-0.09,0.152-0.09c0.047,0,0.082,0.037,0.141,0.09
				l0.549,0.533c0.059,0.053,0.094,0.131,0.094,0.195c0,0.182-0.305,0.26-0.445,0.312c-0.268,0.662-1.193,2.34-1.498,2.807
				c0.551,0.416,1.604,1.535,1.604,2.951c0,0.963-0.455,1.6-1.381,1.73c-0.141-0.715-0.561-1.041-0.76-1.197l0.035-0.078
				c0.479,0.105,0.748,0.105,0.842,0.105c0.211,0,0.48,0,0.48-0.859c0-1.117-0.445-1.924-0.982-2.625
				c0.42-1.027,0.771-2.445,0.854-3.172h-1.264v0.143l-0.012,3.172v3.068c0,1.91,0,2.482,0.035,3.197
				c0.012,0.092,0.012,0.26,0.012,0.338c0,0.17,0,0.781-0.645,0.781c-0.117,0-0.316-0.014-0.316-0.377
				c0-0.053,0.012-0.195,0.023-0.299c0.117-1.404,0.152-5.396,0.152-6.969c0-1.43-0.047-3.121-0.094-3.523
				c-0.023-0.182-0.07-0.363-0.094-0.494l1.055,0.65H44.943z M50.877,28.41c0.012-0.014,0.094-0.117,0.164-0.117
				c0.059,0,0.141,0.078,0.176,0.117l0.596,0.533c0.023,0.014,0.141,0.117,0.141,0.221c0,0.182-0.291,0.312-0.525,0.416
				c-0.363,1.768-1.043,3.199-1.486,3.939c0.854,0.988,1.977,1.572,3.172,1.871l0.012,0.092c-0.504,0.17-0.879,0.533-1.207,0.975
				c-0.338-0.182-1.498-0.922-2.434-2.223c-0.738,1.041-1.662,1.795-3.885,2.457l-0.035-0.104c2.363-1.262,3.02-2.25,3.498-3.043
				c-0.375-0.729-0.924-2.209-1.076-4.381h-0.457c0,5.045-1.941,6.475-2.996,7.189l-0.059-0.064c1.92-2.34,2.271-3.85,2.271-7.645
				c0-1.873-0.059-2.639-0.258-3.367l1.205,0.662h3.219l0.504-0.572c0.129-0.143,0.141-0.154,0.188-0.154
				c0.059,0,0.104,0.039,0.221,0.143l0.68,0.559c0.059,0.053,0.117,0.117,0.117,0.195c0,0.129-0.105,0.143-0.176,0.143h-4.904
				c-0.012,0.689-0.012,1.729-0.012,2.6h2.961L50.877,28.41z M48.162,29.164c0.199,1.312,0.584,2.6,1.287,3.691
				c0.516-1.053,0.9-2.223,1.146-3.691H48.162z"/>
		</g>
		<line fill="none" stroke="#D7000F" stroke-miterlimit="10" x1="0.365" y1="14.524" x2="73.635" y2="14.524"/>
	</g>
</g>
<g id="Slice">
	<rect id="_x3C_スライス_x3E__7_" fill="none" width="74" height="86"/>
</g>
<g id="homeフッター_2">
	<g>
		<g>
			<path fill="#353535" d="M7.061,45.25c0.721-0.768,1.605-1.15,2.656-1.15c1.057,0,1.943,0.387,2.664,1.156
				c0.779,0.834,1.17,1.943,1.17,3.332c0,1.41-0.404,2.531-1.211,3.365c-0.723,0.744-1.598,1.117-2.623,1.117
				c-1.096,0-2.006-0.414-2.73-1.238c-0.734-0.841-1.102-1.923-1.102-3.244C5.885,47.2,6.277,46.088,7.061,45.25z M7.936,51.619
				c0.484,0.654,1.08,0.98,1.785,0.98c0.689,0,1.279-0.318,1.77-0.955s0.736-1.656,0.736-3.056c0-1.418-0.248-2.441-0.744-3.072
				s-1.084-0.945-1.762-0.945c-0.701,0-1.295,0.326-1.781,0.98s-0.73,1.666-0.73,3.037C7.209,49.956,7.451,50.965,7.936,51.619z"/>
			<path fill="#353535" d="M20.59,50.27c0.197,0.584,0.43,1.05,0.695,1.396c0.465,0.605,1.041,0.908,1.729,0.908
				c0.373,0,0.695-0.131,0.967-0.393c0.271-0.264,0.408-0.629,0.408-1.1c0-0.421-0.137-0.791-0.41-1.103
				c-0.18-0.199-0.555-0.498-1.129-0.895l-0.998-0.693c-0.301-0.211-0.541-0.424-0.719-0.641c-0.332-0.41-0.498-0.863-0.498-1.357
				c0-0.656,0.197-1.203,0.588-1.639c0.393-0.436,0.912-0.654,1.561-0.654c0.266,0,0.588,0.074,0.963,0.219
				c0.375,0.146,0.59,0.221,0.643,0.221c0.145,0,0.244-0.039,0.299-0.115c0.057-0.076,0.1-0.184,0.129-0.324h0.24l0.258,2.768
				h-0.281c-0.189-0.832-0.496-1.414-0.916-1.744c-0.422-0.33-0.838-0.496-1.248-0.496c-0.32,0-0.6,0.105-0.838,0.314
				s-0.357,0.5-0.357,0.873c0,0.334,0.092,0.619,0.275,0.857c0.182,0.24,0.465,0.492,0.85,0.754l1.027,0.705
				c0.643,0.439,1.096,0.844,1.361,1.213c0.26,0.373,0.389,0.812,0.389,1.32c0,0.681-0.23,1.25-0.693,1.707
				s-1.055,0.686-1.773,0.686c-0.363,0-0.74-0.076-1.135-0.229S21.355,52.6,21.297,52.6c-0.137,0-0.229,0.047-0.275,0.141
				c-0.049,0.092-0.08,0.191-0.096,0.297H20.67l-0.35-2.767H20.59z"/>
			<path fill="#353535" d="M32.365,52.885v-0.24c0.301-0.037,0.525-0.164,0.676-0.377c0.15-0.215,0.408-0.799,0.773-1.755
				l2.438-6.379h0.234l2.914,7.369c0.195,0.488,0.35,0.789,0.467,0.906c0.115,0.115,0.311,0.193,0.584,0.236v0.24h-2.975v-0.24
				c0.342-0.033,0.562-0.074,0.662-0.123c0.098-0.049,0.148-0.168,0.148-0.357c0-0.062-0.02-0.174-0.059-0.334
				c-0.037-0.16-0.09-0.33-0.16-0.506l-0.467-1.25h-3.084c-0.305,0.85-0.486,1.369-0.545,1.556s-0.088,0.336-0.088,0.445
				c0,0.219,0.08,0.371,0.24,0.455c0.098,0.051,0.285,0.088,0.559,0.113v0.24H32.365z M37.404,49.547l-1.342-3.58l-1.348,3.58
				H37.404z"/>
			<path fill="#353535" d="M46.703,52.664c0.475-0.043,0.77-0.137,0.885-0.283c0.113-0.146,0.172-0.496,0.172-1.047v-5.638
				c0-0.471-0.064-0.775-0.191-0.912c-0.129-0.139-0.416-0.225-0.865-0.258v-0.24h3.33v0.24c-0.457,0.025-0.752,0.109-0.887,0.254
				c-0.133,0.145-0.199,0.449-0.199,0.914v2.664c0.721-0.684,1.311-1.264,1.768-1.742c0.82-0.865,1.229-1.42,1.229-1.666
				c0-0.172-0.068-0.287-0.207-0.342c-0.141-0.055-0.338-0.082-0.592-0.082v-0.24h3.064v0.24c-0.373,0.041-0.668,0.121-0.885,0.24
				c-0.215,0.119-0.514,0.379-0.895,0.781l-2.283,2.354l2.785,3.343c0.508,0.602,0.854,0.977,1.037,1.127
				c0.182,0.148,0.451,0.246,0.807,0.293v0.221h-3.58v-0.221c0.324-0.014,0.543-0.043,0.658-0.086
				c0.113-0.045,0.172-0.133,0.172-0.266c0-0.07-0.037-0.182-0.111-0.33c-0.076-0.148-0.193-0.32-0.352-0.516l-2.254-2.705
				l-0.361,0.373v2.351c0,0.484,0.066,0.791,0.197,0.92s0.418,0.215,0.859,0.258v0.221h-3.301V52.664z"/>
			<path fill="#353535" d="M60.963,52.885v-0.24c0.301-0.037,0.525-0.164,0.678-0.377c0.15-0.215,0.408-0.799,0.773-1.755
				l2.438-6.379h0.232l2.914,7.369c0.195,0.488,0.35,0.789,0.467,0.906c0.115,0.115,0.311,0.193,0.586,0.236v0.24h-2.977v-0.24
				c0.342-0.033,0.562-0.074,0.662-0.123c0.098-0.049,0.148-0.168,0.148-0.357c0-0.062-0.02-0.174-0.057-0.334
				c-0.039-0.16-0.092-0.33-0.16-0.506l-0.469-1.25h-3.084c-0.303,0.85-0.484,1.369-0.545,1.556
				c-0.059,0.188-0.088,0.336-0.088,0.445c0,0.219,0.08,0.371,0.24,0.455c0.098,0.051,0.285,0.088,0.559,0.113v0.24H60.963z
				 M66.002,49.547l-1.342-3.58l-1.346,3.58H66.002z"/>
		</g>
		<g>
			<path fill="#353535" d="M26.691,73.021c0,0,0,0.039,0.012,0.051c0.164,0.885,0.504,1.834,0.867,2.666
				c0.877,1.949,2.316,3.004,4.482,3.652v0.105c-0.246,0.064-0.867,0.232-1.346,1.014c-2.553-1.574-3.746-3.705-4.191-7.164
				c-0.15,1.625-0.514,3.264-1.404,4.576c-1.357,2.029-3.146,2.602-3.861,2.809l-0.047-0.092c1.686-0.922,3.078-2.43,3.77-4.367
				c0.361-1.041,0.607-2.133,0.701-3.25h-2.809c-0.094,0-0.844,0-1.381,0.117l-0.234-0.52c0.924,0.09,1.779,0.09,1.803,0.09h2.656
				c0.012-0.207,0.059-0.701,0.059-1.352c0-0.494-0.047-1.613-0.258-2.289l1.334,0.404c0.141,0.039,0.211,0.09,0.211,0.195
				c0,0.143-0.164,0.271-0.398,0.441c0,0.832-0.047,1.611-0.094,2.6h3.207l0.527-0.676c0.117-0.143,0.129-0.156,0.188-0.156
				c0.047,0,0.094,0.025,0.211,0.131l0.783,0.676c0.047,0.039,0.117,0.117,0.117,0.195c0,0.143-0.117,0.143-0.176,0.143H26.691z"/>
			<path fill="#353535" d="M44.943,69.771l0.398-0.391c0.012-0.014,0.082-0.09,0.152-0.09c0.047,0,0.082,0.037,0.141,0.09
				l0.549,0.533c0.059,0.053,0.094,0.131,0.094,0.195c0,0.182-0.305,0.26-0.445,0.312c-0.268,0.662-1.193,2.34-1.498,2.807
				c0.551,0.416,1.604,1.535,1.604,2.951c0,0.963-0.455,1.6-1.381,1.73c-0.141-0.715-0.561-1.041-0.76-1.197l0.035-0.078
				c0.479,0.105,0.748,0.105,0.842,0.105c0.211,0,0.48,0,0.48-0.859c0-1.117-0.445-1.924-0.982-2.625
				c0.42-1.027,0.771-2.445,0.854-3.172h-1.264v0.143l-0.012,3.172v3.068c0,1.91,0,2.482,0.035,3.197
				c0.012,0.092,0.012,0.26,0.012,0.338c0,0.17,0,0.781-0.645,0.781c-0.117,0-0.316-0.014-0.316-0.377
				c0-0.053,0.012-0.195,0.023-0.299c0.117-1.404,0.152-5.396,0.152-6.969c0-1.43-0.047-3.121-0.094-3.523
				c-0.023-0.182-0.07-0.363-0.094-0.494l1.055,0.65H44.943z M50.877,72.41c0.012-0.014,0.094-0.117,0.164-0.117
				c0.059,0,0.141,0.078,0.176,0.117l0.596,0.533c0.023,0.014,0.141,0.117,0.141,0.221c0,0.182-0.291,0.312-0.525,0.416
				c-0.363,1.768-1.043,3.199-1.486,3.939c0.854,0.988,1.977,1.572,3.172,1.871l0.012,0.092c-0.504,0.17-0.879,0.533-1.207,0.975
				c-0.338-0.182-1.498-0.922-2.434-2.223c-0.738,1.041-1.662,1.795-3.885,2.457l-0.035-0.104c2.363-1.262,3.02-2.25,3.498-3.043
				c-0.375-0.729-0.924-2.209-1.076-4.381h-0.457c0,5.045-1.941,6.475-2.996,7.189l-0.059-0.064c1.92-2.34,2.271-3.85,2.271-7.645
				c0-1.873-0.059-2.639-0.258-3.367l1.205,0.662h3.219l0.504-0.572c0.129-0.143,0.141-0.154,0.188-0.154
				c0.059,0,0.104,0.039,0.221,0.143l0.68,0.559c0.059,0.053,0.117,0.117,0.117,0.195c0,0.129-0.105,0.143-0.176,0.143h-4.904
				c-0.012,0.689-0.012,1.729-0.012,2.6h2.961L50.877,72.41z M48.162,73.164c0.199,1.312,0.584,2.6,1.287,3.691
				c0.516-1.053,0.9-2.223,1.146-3.691H48.162z"/>
		</g>
		<line fill="none" stroke="#D7000F" stroke-miterlimit="10" x1="0.365" y1="58.523" x2="73.635" y2="58.523"/>
	</g>
</g>
</svg>
