<?xml version="1.0" encoding="utf-8"?>
<!-- Generator: Adobe Illustrator 17.1.0, SVG Export Plug-In . SVG Version: 6.00 Build 0)  -->
<!DOCTYPE svg PUBLIC "-//W3C//DTD SVG 1.1//EN" "http://www.w3.org/Graphics/SVG/1.1/DTD/svg11.dtd">
<svg version="1.1" xmlns="http://www.w3.org/2000/svg" xmlns:xlink="http://www.w3.org/1999/xlink" x="0px" y="0px"
	 viewBox="0 0 190 18" enable-background="new 0 0 190 18" xml:space="preserve">
<g id="bg" display="none">
	<rect x="-10" y="-35" display="inline" fill="#CCCCCC" width="393" height="265"/>
</g>
<g id="Homeヘッダーフッター青山">
</g>
<g id="information">
	<g>
		<g>
			<path fill="#FFFFFF" d="M0.1,16.494c0.819-0.07,1.352-0.217,1.594-0.438c0.243-0.221,0.364-0.795,0.364-1.719V3.662
				c0-0.883-0.121-1.451-0.364-1.705C1.452,1.703,0.919,1.553,0.1,1.506V1.061h5.964v0.445C5.244,1.553,4.712,1.703,4.47,1.957
				C4.227,2.211,4.106,2.779,4.106,3.662v10.676c0,0.924,0.121,1.498,0.364,1.719c0.242,0.221,0.773,0.367,1.594,0.438v0.445H0.1
				V16.494z"/>
			<path fill="#FFFFFF" d="M11.753,16.494c0.833-0.102,1.368-0.326,1.604-0.674c0.236-0.348,0.354-1.152,0.354-2.418V2.828
				l-0.275-0.387c-0.295-0.412-0.546-0.668-0.753-0.766c-0.206-0.098-0.517-0.154-0.93-0.17V1.061h3.439l7.781,11.482V4.568
				c0-1.312-0.164-2.166-0.492-2.562c-0.217-0.256-0.696-0.422-1.438-0.5V1.061h4.734v0.445C25.011,1.6,24.5,1.822,24.244,2.174
				C23.988,2.525,23.86,3.33,23.86,4.588v12.633h-0.345l-8.917-13.16v9.342c0,1.312,0.16,2.166,0.481,2.564
				c0.21,0.258,0.68,0.434,1.408,0.527v0.445h-4.734V16.494z"/>
			<path fill="#FFFFFF" d="M31.351,16.494c0.794-0.102,1.287-0.274,1.482-0.52c0.193-0.244,0.29-0.885,0.29-1.918V3.662
				c0-0.852-0.108-1.408-0.325-1.67c-0.216-0.262-0.698-0.424-1.446-0.486V1.061h10.738l0.068,3.434h-0.561
				C41.459,3.397,41.2,2.703,40.82,2.412c-0.381-0.293-1.132-0.438-2.254-0.438h-2.765c-0.27,0-0.442,0.055-0.518,0.164
				c-0.076,0.109-0.114,0.324-0.114,0.645v5.355h2.924c0.859,0,1.407-0.152,1.644-0.455c0.236-0.303,0.427-0.918,0.571-1.842h0.472
				v5.543h-0.472c-0.151-0.93-0.345-1.545-0.581-1.846c-0.236-0.301-0.781-0.451-1.634-0.451h-2.924v5.25
				c0,0.877,0.113,1.439,0.34,1.684c0.227,0.244,0.72,0.402,1.481,0.473v0.445h-5.64V16.494z"/>
			<path fill="#FFFFFF" d="M50.002,2.842c1.24-1.414,2.766-2.121,4.577-2.121c1.817,0,3.346,0.711,4.586,2.133
				c1.346,1.539,2.018,3.59,2.018,6.152c0,2.602-0.696,4.672-2.087,6.211c-1.247,1.375-2.753,2.063-4.518,2.063
				c-1.89,0-3.458-0.762-4.705-2.285c-1.267-1.555-1.9-3.551-1.9-5.988C47.975,6.443,48.651,4.389,50.002,2.842z M51.51,14.602
				c0.834,1.207,1.858,1.811,3.074,1.811c1.188,0,2.205-0.588,3.05-1.764c0.844-1.176,1.266-3.057,1.266-5.643
				c0-2.617-0.427-4.508-1.281-5.672c-0.854-1.164-1.865-1.746-3.034-1.746c-1.209,0-2.232,0.604-3.069,1.811
				c-0.838,1.207-1.257,3.076-1.257,5.607C50.258,11.529,50.675,13.395,51.51,14.602z"/>
			<path fill="#FFFFFF" d="M67.198,16.494c0.774-0.086,1.256-0.266,1.446-0.537c0.19-0.271,0.286-0.906,0.286-1.9V3.662
				c0-0.844-0.107-1.396-0.32-1.658c-0.213-0.262-0.684-0.428-1.412-0.498V1.061h5.58c1.162,0,2.13,0.176,2.904,0.525
				c1.47,0.664,2.204,1.885,2.204,3.664c0,1.193-0.326,2.109-0.979,2.75c-0.653,0.639-1.541,1.061-2.663,1.264l4.153,6.09
				c0.257,0.373,0.513,0.645,0.769,0.814c0.256,0.17,0.584,0.279,0.984,0.326v0.445h-3.247l-5.042-7.395l-0.885,0.059v4.73
				c0,0.887,0.113,1.449,0.34,1.688c0.227,0.236,0.72,0.395,1.481,0.473v0.445h-5.601V16.494z M74.087,8.174
				c1.069-0.523,1.604-1.506,1.604-2.947c0-1.389-0.479-2.336-1.438-2.844c-0.512-0.271-1.19-0.408-2.037-0.408
				c-0.571,0-0.92,0.049-1.048,0.146c-0.128,0.098-0.192,0.324-0.192,0.684v5.908C72.427,8.65,73.464,8.471,74.087,8.174z"/>
			<path fill="#FFFFFF" d="M85.683,16.494c0.833-0.102,1.368-0.326,1.604-0.674c0.236-0.348,0.354-1.152,0.354-2.418V3.66
				c0-0.867-0.114-1.432-0.344-1.691c-0.23-0.262-0.752-0.416-1.565-0.463V1.061h3.975l4.629,11.955l4.517-11.955h4.006v0.445
				c-0.748,0.062-1.23,0.225-1.446,0.486c-0.217,0.26-0.325,0.816-0.325,1.668v10.668c0,0.873,0.108,1.433,0.325,1.68
				c0.216,0.246,0.698,0.408,1.446,0.486v0.445h-5.64v-0.445c0.813-0.078,1.32-0.252,1.521-0.521c0.2-0.269,0.301-0.912,0.301-1.926
				V3.273L93.876,16.94h-0.275L88.528,3.836v9.566c0,1.312,0.16,2.166,0.481,2.564c0.21,0.258,0.68,0.434,1.408,0.527v0.445h-4.734
				V16.494z"/>
			<path fill="#FFFFFF" d="M108.715,16.94v-0.445c0.519-0.07,0.907-0.303,1.167-0.697c0.259-0.394,0.703-1.475,1.332-3.24
				l4.2-11.777h0.401l5.021,13.606c0.335,0.9,0.603,1.459,0.803,1.672c0.2,0.213,0.536,0.359,1.009,0.438v0.445h-5.126v-0.445
				c0.589-0.062,0.969-0.139,1.14-0.229c0.17-0.088,0.255-0.309,0.255-0.658c0-0.117-0.032-0.322-0.098-0.617
				c-0.066-0.297-0.158-0.608-0.276-0.934l-0.807-2.309h-5.312c-0.523,1.57-0.836,2.527-0.938,2.873
				c-0.102,0.348-0.152,0.621-0.152,0.822c0,0.404,0.138,0.686,0.413,0.84c0.17,0.094,0.491,0.164,0.962,0.211v0.445H108.715z
				 M117.397,10.775l-2.311-6.609l-2.32,6.609H117.397z"/>
			<path fill="#FFFFFF" d="M126.174,1.061h11.397l0.108,4.078h-0.482c-0.235-1.281-0.536-2.115-0.9-2.502
				c-0.364-0.387-1.13-0.58-2.298-0.58h-1.122v12.281c0,0.924,0.121,1.498,0.364,1.719c0.242,0.221,0.774,0.367,1.594,0.438v0.445
				h-5.876v-0.445c0.853-0.078,1.385-0.246,1.595-0.502c0.21-0.256,0.316-0.902,0.316-1.936v-12h-1.132
				c-1.116,0-1.875,0.191-2.279,0.574c-0.403,0.383-0.707,1.219-0.91,2.508h-0.492L126.174,1.061z"/>
			<path fill="#FFFFFF" d="M143.459,16.494c0.819-0.07,1.352-0.217,1.594-0.438c0.243-0.221,0.364-0.795,0.364-1.719V3.662
				c0-0.883-0.121-1.451-0.364-1.705c-0.242-0.254-0.774-0.404-1.594-0.451V1.061h5.964v0.445c-0.82,0.047-1.352,0.197-1.594,0.451
				c-0.243,0.254-0.364,0.822-0.364,1.705v10.676c0,0.924,0.121,1.498,0.364,1.719c0.242,0.221,0.773,0.367,1.594,0.438v0.445
				h-5.964V16.494z"/>
			<path fill="#FFFFFF" d="M157.514,2.842c1.24-1.414,2.766-2.121,4.577-2.121c1.817,0,3.346,0.711,4.586,2.133
				c1.346,1.539,2.019,3.59,2.019,6.152c0,2.602-0.696,4.672-2.087,6.211c-1.247,1.375-2.753,2.063-4.518,2.063
				c-1.89,0-3.458-0.762-4.705-2.285c-1.267-1.555-1.899-3.551-1.899-5.988C155.487,6.443,156.163,4.389,157.514,2.842z
				 M159.022,14.602c0.834,1.207,1.858,1.811,3.074,1.811c1.189,0,2.205-0.588,3.05-1.764c0.844-1.176,1.266-3.057,1.266-5.643
				c0-2.617-0.427-4.508-1.281-5.672c-0.854-1.164-1.865-1.746-3.034-1.746c-1.209,0-2.232,0.604-3.069,1.811
				c-0.838,1.207-1.257,3.076-1.257,5.607C157.77,11.529,158.187,13.395,159.022,14.602z"/>
			<path fill="#FFFFFF" d="M174.709,16.494c0.833-0.102,1.368-0.326,1.605-0.674c0.236-0.348,0.354-1.152,0.354-2.418V2.828
				l-0.275-0.387c-0.295-0.412-0.546-0.668-0.753-0.766c-0.206-0.098-0.517-0.154-0.93-0.17V1.061h3.439l7.781,11.482V4.568
				c0-1.312-0.164-2.166-0.492-2.562c-0.217-0.256-0.696-0.422-1.438-0.5V1.061h4.734v0.445c-0.768,0.094-1.279,0.316-1.535,0.668
				c-0.256,0.352-0.384,1.156-0.384,2.414v12.633h-0.345l-8.917-13.16v9.342c0,1.312,0.16,2.166,0.482,2.564
				c0.21,0.258,0.68,0.434,1.408,0.527v0.445h-4.734V16.494z"/>
		</g>
	</g>
</g>
<g id="special_topics">
</g>
<g id="news_FB">
</g>
<g id="home">
</g>
<g id="slice">
	<rect id="_x3C_スライス_x3E__1_" fill="none" width="190" height="18"/>
</g>
</svg>
