<?xml version="1.0" encoding="utf-8"?>
<!-- Generator: Adobe Illustrator 18.1.0, SVG Export Plug-In . SVG Version: 6.00 Build 0)  -->
<!DOCTYPE svg PUBLIC "-//W3C//DTD SVG 1.1//EN" "http://www.w3.org/Graphics/SVG/1.1/DTD/svg11.dtd">
<svg version="1.1" id="レイヤー_1" xmlns="http://www.w3.org/2000/svg" xmlns:xlink="http://www.w3.org/1999/xlink" x="0px"
	 y="0px" viewBox="0 0 247.7 13.9" enable-background="new 0 0 247.7 13.9" xml:space="preserve">
<g>
	<g>
		<path fill="#535353" d="M2.2,6.5c-0.5,0-1,0-1.5,0.1L0.4,6.1c0.9,0.1,1.8,0.1,2,0.1h0.7c0-0.7,0-1.6,0-2.3c0-1.4-0.1-1.6-0.2-2.1
			L4,2.1c0.1,0,0.2,0.1,0.2,0.2c0,0.2-0.2,0.3-0.4,0.4C3.8,4.5,3.8,5.4,3.9,6.2h0.6l0.5-0.5C5,5.7,5,5.6,5.1,5.6
			c0.1,0,0.2,0.1,0.2,0.1l0.6,0.5C6,6.3,6,6.3,6,6.4c0,0.1-0.1,0.1-0.2,0.1h-2v0.7c1.6,0.4,1.8,1.1,1.8,1.3c0,0.2-0.1,0.5-0.5,0.5
			c-0.3,0-0.5-0.2-0.6-0.6C4.3,7.9,4.1,7.7,3.9,7.4c0,2.4,0,3.6,0.1,4.6c0,0.3,0.1,0.8,0.1,0.9c0,0.6-0.5,0.7-0.7,0.7
			c-0.2,0-0.4,0-0.4-0.4c0-0.2,0.1-1,0.1-1.2c0.1-2.4,0.1-2.9,0.1-4c-0.5,0.9-1.8,2.4-3,3.2L0,11.2c1-1,2.4-3.3,3-4.7H2.2z M0.9,3.2
			C1.5,3.5,2,3.8,2.3,4.1c0.2,0.2,0.3,0.4,0.3,0.7c0,0.1-0.1,0.6-0.5,0.6c-0.3,0-0.4-0.2-0.5-0.6C1.3,3.7,1,3.5,0.9,3.2L0.9,3.2z
			 M6.1,3.2c0.1,0,0.2,0.1,0.2,0.2c0,0.2-0.3,0.2-0.4,0.3C5.1,4.6,5,4.7,4.3,5.5l-0.1,0c0.3-0.6,0.6-1.4,0.7-1.8
			c0.2-0.5,0.2-0.7,0.2-1L6.1,3.2z M10.7,8.6l0.4-0.7c0.1-0.1,0.1-0.2,0.2-0.2c0.1,0,0.2,0.1,0.2,0.1l0.7,0.5
			c0.1,0.1,0.2,0.1,0.2,0.2c0,0.1-0.1,0.1-0.2,0.1L9.9,9.1c0,0.5,0.1,2.7,0.1,2.8c0,0.3,0,0.9,0,1c0,0.6-0.5,0.7-0.7,0.7
			c-0.4,0-0.4-0.2-0.4-0.5c0-0.1,0-1.1,0.1-1.3c0-0.4,0-2.2,0-2.5L6.2,9.9c-0.4,0.1-1,0.2-1.5,0.4L4.4,9.9c0.8-0.1,1.6-0.2,2-0.3
			L9,9V8.6l0-2.9c0-2.9-0.1-3.2-0.3-3.8l1.4,0.4c0.1,0,0.2,0.1,0.2,0.2c0,0.1-0.1,0.1-0.1,0.2C10,2.7,10,2.8,9.9,2.9
			c0,0.4,0,0.7,0,2.1c0,0.5,0,2.6,0,3.9L10.7,8.6z M6.5,6c0.9,0.2,1.7,0.8,1.7,1.4C8.1,7.8,7.9,8,7.6,8C7.2,8,7.1,7.6,7.1,7.4
			C7,6.9,6.8,6.4,6.5,6L6.5,6z M6.5,3c0.5,0.1,1.7,0.6,1.7,1.4c0,0.4-0.3,0.5-0.5,0.5c-0.3,0-0.4-0.2-0.5-0.5C7.2,4.4,7,3.6,6.5,3
			L6.5,3z"/>
		<path fill="#535353" d="M16.2,3.4v3.2h0.3L17,6c0.1-0.1,0.1-0.2,0.2-0.2c0.1,0,0.1,0.1,0.2,0.1L18,6.6c0.1,0,0.1,0.1,0.1,0.2
			c0,0.1-0.1,0.1-0.2,0.1h-1.7v2.9c0.3-0.1,1.7-0.6,2-0.8l0,0.1c-1,0.8-3,2-3.9,2.5c0,0.2-0.1,0.5-0.3,0.5c-0.1,0-0.2-0.1-0.2-0.2
			l-0.7-1.3c0.1,0,0.2,0,0.3,0c0.6,0,1.5-0.3,1.8-0.4V6.9c-0.5,0-1,0-1.5,0.1l-0.3-0.5c0.5,0,0.9,0.1,1.7,0.1V3.4
			c-0.8,0-1.2,0-1.7,0.1L13.4,3c0.7,0.1,1.3,0.1,2,0.1h1.2L17,2.6c0.1-0.1,0.1-0.2,0.2-0.2c0.1,0,0.1,0,0.2,0.1L18,3.1
			c0.1,0,0.1,0.1,0.1,0.2c0,0.1-0.1,0.1-0.2,0.1H16.2z M22.8,10.1l0.5-0.6c0.1-0.1,0.1-0.2,0.2-0.2c0,0,0.1,0,0.2,0.1l0.7,0.6
			c0.1,0.1,0.1,0.1,0.1,0.2c0,0.1-0.1,0.1-0.2,0.1h-2.8v2.4h1.8l0.5-0.6c0.1-0.1,0.1-0.2,0.2-0.2c0.1,0,0.1,0,0.2,0.1l0.7,0.6
			c0.1,0.1,0.1,0.1,0.1,0.2c0,0.1-0.1,0.1-0.2,0.1h-7.2c-0.5,0-1,0-1.5,0.1l-0.2-0.5c0.9,0.1,1.8,0.1,2,0.1h2.6v-2.4h-0.8
			c-0.3,0-0.9,0-1.5,0.1L18.2,10c0.9,0.1,1.8,0.1,2,0.1h0.6V7.9h-1.5c0,0.3,0,0.4,0,0.5c-0.1,0.2-0.3,0.3-0.5,0.3
			c-0.2,0-0.4-0.1-0.4-0.4c0-0.2,0.1-1,0.1-1.1c0-0.5,0-2.5,0-2.9c0-1.4,0-1.7-0.2-2.1l1.2,0.6h3.5l0.4-0.4c0.1-0.1,0.1-0.1,0.2-0.1
			c0.1,0,0.2,0.1,0.2,0.1l0.6,0.4c0.1,0.1,0.1,0.1,0.1,0.2c0,0.1,0,0.1-0.4,0.4c0,0.6,0,0.8,0,3.1c0,0.2,0.1,1.2,0.1,1.4
			c0,0.4-0.4,0.6-0.6,0.6c-0.4,0-0.4-0.3-0.4-0.6h-1.5v2.2H22.8z M19.2,3v2.1h1.5V3H19.2z M19.2,5.4v2.2h1.5V5.4H19.2z M23.1,5.1V3
			h-1.5v2.1H23.1z M23.1,7.6V5.4h-1.5v2.2H23.1z"/>
		<path fill="#535353" d="M35.8,7.7L36.3,7c0.1-0.1,0.1-0.2,0.2-0.2c0.1,0,0.1,0,0.2,0.1l0.9,0.7c0.1,0.1,0.1,0.1,0.1,0.2
			C37.9,8,37.8,8,37.7,8h-6.2c0.2,0.4,0.7,1.2,1.7,2.1c0.7-0.7,0.9-0.9,1.5-1.7c0-0.1,0.2-0.4,0.2-0.4l1,0.8C35.9,8.9,35.9,9,35.9,9
			c0,0.2-0.2,0.2-0.5,0.2c-0.2,0.1-1,0.5-1.2,0.6c-0.1,0.1-0.8,0.4-0.9,0.5c1.4,1.1,3.1,1.7,4.9,1.7V12c-0.8,0.3-1.2,0.9-1.4,1.2
			c-3.2-1.1-4.9-3.2-5.6-5.2h-1.3v3.8c0.5-0.1,2.7-0.5,3.1-0.6l0,0.1c-0.9,0.6-2.2,1-2.7,1.2c-1.8,0.6-2,0.7-2.2,0.8
			c0,0-0.2,0.2-0.2,0.3c0,0-0.1,0.1-0.1,0.1c-0.1,0-0.1,0-0.2-0.1l-0.6-1.3c0.1,0,0.4,0,0.6,0c0.4,0,1.1-0.1,1.4-0.2V8h-0.8
			c-0.5,0-1,0-1.5,0.1l-0.2-0.5c0.8,0.1,1.6,0.1,2,0.1H29c0-3,0-3.9-0.1-4.8c0-0.1-0.1-0.7-0.1-0.9L30,2.7h4.6l0.5-0.6
			c0.1-0.1,0.1-0.2,0.2-0.2c0.1,0,0.1,0,0.2,0.1l0.9,0.7c0.1,0,0.1,0.1,0.1,0.2C36.6,3,36.5,3,36.5,3h-6.6v1.3h3.8l0.5-0.5
			c0.1-0.1,0.1-0.2,0.2-0.2c0.1,0,0.1,0,0.2,0.1l0.8,0.5c0,0,0.1,0.1,0.1,0.2c0,0.1-0.1,0.1-0.2,0.1h-5.5V6h3.8l0.5-0.6
			c0.1-0.1,0.2-0.2,0.2-0.2c0.1,0,0.1,0,0.2,0.1L35.4,6c0.1,0.1,0.1,0.1,0.1,0.2c0,0.1-0.1,0.1-0.2,0.1h-5.5v1.4H35.8z"/>
		<path fill="#535353" d="M59.1,1.1l0.4-0.4c0.1-0.1,0.2-0.2,0.3-0.2c0,0,0.1,0,0.2,0.1l0.6,0.5c0.1,0,0.1,0.1,0.1,0.2
			c0,0.1-0.3,0.3-0.5,0.5c0,0.3,0,0.4,0,1.3l0,1.3c0,0.2,0,0.4-0.2,0.5c-0.1,0.1-0.4,0.2-0.5,0.2c-0.4,0-0.4-0.4-0.4-0.6h-2.7v4.2
			l0,4.3c0,0.8-0.6,0.8-0.8,0.8c-0.2,0-0.4,0-0.4-0.4c0-0.1,0-0.2,0-0.3c0.1-1.5,0.1-4.9,0.1-6.6c0-3.6-0.1-5.2-0.1-5.4
			c0-0.3-0.1-0.5-0.1-0.6l1.3,0.6H59.1z M56.5,1.5v1.3h2.7V1.5H56.5z M56.5,3.1v1.1h2.7V3.1H56.5z M60.4,9.2
			c0.1-0.3,0.2-0.7,0.2-1.3h-0.7c-0.4,0-1.1,0-1.8,0.1l-0.3-0.6c0.8,0.1,1.5,0.1,2.3,0.1h1.3C61.6,7.1,62,5.9,62,5.2l1.3,0.6
			C63.4,5.9,63.5,6,63.5,6c0,0.2-0.4,0.3-0.5,0.3c-0.2,0.2-1,1-1.2,1.2H63L63.4,7c0.2-0.2,0.2-0.2,0.2-0.2c0.1,0,0.2,0.1,0.3,0.2
			l0.5,0.5c0.1,0.1,0.1,0.1,0.1,0.2c0,0.2-0.2,0.2-0.2,0.2h-2.8c0,0.5-0.1,0.9-0.1,1.3h1.8l0.5-0.5c0,0,0.1-0.1,0.1-0.1
			c0,0,0.1-0.1,0.1-0.1c0.1,0,0.2,0.1,0.3,0.2l0.6,0.5c0.1,0.1,0.2,0.1,0.2,0.2c0,0.2-0.2,0.2-0.2,0.2h-3.1c0.6,0.8,1.9,1.8,3.4,1.8
			v0.1c-0.4,0.3-0.8,0.5-1.1,1c-1.7-0.9-2.4-2.3-2.6-2.9c-0.7,2-2.5,2.9-3.9,3.2v-0.1c0.9-0.5,2.4-1.4,3-3.1h-1
			c-0.1,0-1.1,0-1.8,0.1l-0.3-0.6c0.8,0.1,1.5,0.1,2.3,0.1H60.4z M58.4,5.3c0.7,0.1,1.9,0.5,1.9,1.4c0,0.3-0.1,0.6-0.5,0.6
			s-0.5-0.3-0.8-1C59,6.1,58.8,5.7,58.4,5.3L58.4,5.3z M65.7,1.1L66,0.7c0.1-0.2,0.2-0.2,0.2-0.2c0.1,0,0.1,0,0.2,0.1l0.7,0.6
			c0,0,0.1,0.1,0.1,0.2c0,0.1,0,0.2-0.5,0.5c0,1.1,0,2.1,0,3.2c0,1.1,0.1,5.8,0.1,6.8c0,0.8-0.2,1.1-0.6,1.4
			c-0.2,0.1-0.5,0.4-1.2,0.5c-0.1-0.3-0.3-1-1-1.5l0-0.1c0.3,0,0.5,0,0.8,0c0.7,0,0.9-0.1,0.9-0.4c0-0.8,0-7.2,0-7.3H63
			c0,0.1,0,0.2,0,0.3c-0.1,0.2-0.5,0.3-0.6,0.3c-0.4,0-0.4-0.3-0.4-0.4c0-0.4,0-2.3,0-2.7c0-0.5,0-1.1-0.2-1.6L63,1.1H65.7z M63,1.5
			v1.3h2.8V1.5H63z M63,3.1v1.1h2.8V3.1H63z"/>
		<path fill="#535353" d="M80.1,2.3l0.5-0.5c0.1-0.1,0.2-0.2,0.3-0.2c0.1,0,0.2,0.1,0.3,0.2l0.8,0.6c0.1,0.1,0.2,0.2,0.2,0.3
			c0,0.2-0.6,0.5-0.7,0.5V8c0,0.5,0.2,3.3,0.2,3.8c0,0.5-0.2,0.9-0.8,0.9c-0.1,0-0.5,0-0.5-0.4c0-0.1,0-0.6,0-0.8h-8.4
			c0,0.2,0,0.8,0,0.9c-0.1,0.4-0.6,0.5-0.9,0.5c-0.4,0-0.4-0.2-0.4-0.4c0-0.1,0.1-0.8,0.1-0.9c0.1-2,0.1-4.6,0.1-6.9
			c0-1.9-0.1-2.4-0.3-3.3l1.6,0.9H80.1z M71.9,2.6v8.5h8.4V2.6H71.9z"/>
		<path fill="#535353" d="M92.6,1.7l0.3-0.3c0.1-0.1,0.1-0.1,0.2-0.1c0,0,0.1,0,0.2,0.1l0.6,0.5C94,1.9,94.1,1.9,94.1,2
			c0,0.1-0.1,0.2-0.4,0.4c0,0.3,0,0.6,0,1.2c0,2,0.1,5.6,0.1,6.5v0.1c0,0.7-0.6,0.7-0.7,0.7c-0.4,0-0.4-0.3-0.4-0.4
			c0-0.1,0-0.6,0-0.7h-1.9c0,0.2,0,1,0,1.1c-0.1,0.5-0.7,0.5-0.7,0.5c-0.3,0-0.4-0.2-0.4-0.4c0-0.2,0.1-0.9,0.1-1
			c0.1-2.1,0.1-4.5,0.1-6.5c0-1.5,0-1.7-0.2-2.4l1.2,0.6H92.6z M90.8,2.1v3.6h1.9V2.1H90.8z M90.8,6v3.5h1.9V6H90.8z M100.5,1.7
			l0.4-0.5c0.1-0.1,0.1-0.2,0.2-0.2c0.1,0,0.1,0,0.3,0.2l0.7,0.5c0.1,0,0.1,0.1,0.1,0.2c0,0.1-0.1,0.1-0.2,0.1h-3.6v1.3h1.6l0.3-0.5
			c0.1-0.1,0.2-0.2,0.2-0.2c0.1,0,0.1,0,0.3,0.2l0.7,0.5c0.1,0,0.1,0.1,0.1,0.2c0,0.1-0.1,0.2-0.2,0.2h-3.1v1.5h2.5l0.4-0.6
			c0.1-0.1,0.1-0.2,0.2-0.2c0.1,0,0.1,0,0.3,0.2l0.8,0.6c0.1,0.1,0.2,0.1,0.2,0.2c0,0.1-0.1,0.1-0.2,0.1h-6.6c-0.4,0-1.1,0-1.8,0.1
			L94,5c1,0.1,2.1,0.1,2.3,0.1h1.2c0-0.2,0-1.2,0-1.5H97c-0.6,0-1.2,0-1.8,0.1l-0.3-0.6c1,0.1,2.1,0.1,2.3,0.1h0.2
			c0-0.2,0-1.1,0-1.3h-0.9c-0.4,0-1.1,0-1.8,0.1l-0.3-0.6c1,0.1,2.1,0.1,2.3,0.1h0.7c0-1,0-1-0.2-1.7l1.5,0.4c0.1,0,0.2,0.1,0.2,0.2
			c0,0.1-0.1,0.2-0.4,0.4v0.6H100.5z M100,6.6l0.3-0.3c0.1-0.1,0.2-0.2,0.3-0.2c0.1,0,0.1,0,0.2,0.1l0.6,0.4c0.1,0,0.1,0.1,0.1,0.2
			c0,0.2-0.2,0.3-0.4,0.4c0,0.1,0,0.3,0,0.3l0.1,2.8l0.1,2c0,1-0.8,1.3-1.5,1.4c-0.3-0.8-0.9-1.1-1.4-1.4l0-0.1
			c0.5,0.1,1.1,0.1,1.3,0.1c0.3,0,0.4,0,0.5-0.1c0.1-0.1,0.1-0.7,0.1-0.8c0-0.2,0-0.8,0-1h-4c0,0.7,0,1.7,0,2.5c0,0.3,0,0.8-0.7,0.8
			c-0.3,0-0.4-0.2-0.4-0.5c0,0,0-0.1,0-0.2c0.1-3.1,0.1-3.5,0.1-4.3c0-1,0-2-0.1-2.9l1.3,0.7H100z M96.1,6.9v1.5h4V6.9H96.1z
			 M96.1,8.8v1.5h4V8.8H96.1z"/>
		<path fill="#535353" d="M107.5,2.1c0-1.1,0-1.3-0.2-2.1l1.5,0.4c0.1,0,0.2,0.1,0.2,0.2c0,0.2-0.1,0.2-0.4,0.3v1.1h0.8l0.3-0.4
			c0.1-0.1,0.1-0.1,0.2-0.1c0.1,0,0.2,0.1,0.2,0.1l0.6,0.5c0,0,0.2,0.1,0.2,0.3c0,0.1,0,0.1-0.4,0.5c0,1.2,0,3.2,0,4.5
			c0,0.6-0.7,0.6-0.8,0.6c-0.3,0-0.4-0.3-0.3-0.6h-3.1c0,0.2,0,3.2,0,3.6c0.1,0,0.2-0.1,0.6-0.2c1-0.5,1.2-0.5,2.1-0.9
			c-0.3-0.9-0.8-1.3-0.9-1.4l0-0.1c0.9,0.3,2.4,1.2,2.4,2.3c0,0.5-0.3,0.8-0.6,0.8c-0.4,0-0.6-0.3-0.7-0.8c-0.1-0.3-0.1-0.4-0.2-0.5
			c-0.5,0.5-3.3,2.3-3.9,2.6c-0.1,0.2-0.2,0.4-0.4,0.4c-0.1,0-0.2,0-0.2-0.1l-0.8-1.3c0.6,0,1.2-0.2,1.5-0.3c0-6.8,0-7.3,0-9.1
			c0-0.3,0-0.3-0.1-0.9l1.3,0.6H107.5z M106.4,2.4c0,0.3,0,0.3,0,0.4c0,0.2,0,1.4,0,1.7h3.1V2.4H106.4z M106.4,4.9c0,1,0,1.1,0,2
			v0.3h3.1V4.9H106.4z M112.9,8c0,0.8,0,1.2-0.3,2c-0.5,1.6-1.7,2.9-3.2,3.8l0-0.1c2.4-2.3,2.6-4.4,2.6-9c0-2.2-0.1-3.3-0.1-3.4
			c0-0.1-0.1-0.6-0.2-0.7l1.4,0.6h2.7l0.4-0.4c0.1-0.1,0.2-0.2,0.2-0.2c0.1,0,0.2,0,0.2,0.1l0.6,0.5c0.1,0.1,0.2,0.1,0.2,0.2
			c0,0.2-0.3,0.4-0.5,0.5v0.2c0,1.5,0,8.2,0,9.6c0,0.4,0,1.8-1.8,2c-0.1-0.4-0.3-0.9-1.5-1.6l0-0.1c0.3,0,1.5,0.2,1.8,0.2
			c0.4,0,0.4-0.1,0.4-0.5c0-0.3,0-2.5,0-3.8H112.9z M116,7.6V4.8h-3v1.3c0,0.2,0,0.3-0.1,1.5H116z M116,4.4V1.6h-3v2.8H116z"/>
		<path fill="#535353" d="M133.8,12.5c0.4,0,0.6-0.1,0.7-0.2c0.1-0.1,0.1-0.4,0.1-0.8V7.1c0-0.4,0-0.6-0.1-0.7
			c-0.1-0.1-0.3-0.2-0.6-0.2V6h2.5v0.2c-0.3,0-0.5,0.1-0.6,0.2c-0.1,0.1-0.1,0.3-0.1,0.7v1.9h2.7V7.1c0-0.4,0-0.6-0.1-0.7
			c-0.1-0.1-0.3-0.2-0.6-0.2V6h2.5v0.2c-0.3,0-0.5,0.1-0.6,0.2c-0.1,0.1-0.1,0.3-0.1,0.7v4.4c0,0.4,0,0.6,0.1,0.7
			c0.1,0.1,0.3,0.2,0.6,0.2v0.2h-2.5v-0.2c0.4,0,0.6-0.1,0.7-0.2c0.1-0.1,0.1-0.4,0.1-0.8V9.5h-2.7v2.1c0,0.4,0,0.6,0.1,0.7
			c0.1,0.1,0.3,0.2,0.6,0.2v0.2h-2.5V12.5z"/>
		<path fill="#535353" d="M142.5,12.7v-0.2c0.2,0,0.4-0.1,0.5-0.3c0.1-0.2,0.3-0.6,0.6-1.4l1.9-4.9h0.2l2.2,5.7
			c0.1,0.4,0.3,0.6,0.4,0.7c0.1,0.1,0.2,0.1,0.5,0.2v0.2h-2.3v-0.2c0.3,0,0.4-0.1,0.5-0.1s0.1-0.1,0.1-0.3c0,0,0-0.1,0-0.3
			c0-0.1-0.1-0.3-0.1-0.4l-0.4-1h-2.4c-0.2,0.7-0.4,1.1-0.4,1.2c0,0.1-0.1,0.3-0.1,0.3c0,0.2,0.1,0.3,0.2,0.3c0.1,0,0.2,0.1,0.4,0.1
			v0.2H142.5z M146.4,10.1l-1-2.8l-1,2.8H146.4z"/>
		<path fill="#535353" d="M151.2,12.5c0.3,0,0.6-0.1,0.6-0.2c0.1-0.1,0.1-0.4,0.1-0.8V7.1c0-0.4,0-0.6-0.1-0.7
			c-0.1-0.1-0.3-0.2-0.6-0.2V6h2.5c0.5,0,1,0.1,1.3,0.2c0.7,0.3,1,0.8,1,1.5c0,0.5-0.1,0.9-0.4,1.1c-0.3,0.3-0.7,0.4-1.2,0.5
			l1.9,2.5c0.1,0.2,0.2,0.3,0.3,0.3c0.1,0.1,0.3,0.1,0.4,0.1v0.2h-1.5l-2.3-3.1l-0.4,0v2c0,0.4,0,0.6,0.2,0.7
			c0.1,0.1,0.3,0.2,0.7,0.2v0.2h-2.5V12.5z M154.3,9c0.5-0.2,0.7-0.6,0.7-1.2c0-0.6-0.2-1-0.6-1.2c-0.2-0.1-0.5-0.2-0.9-0.2
			c-0.3,0-0.4,0-0.5,0.1c-0.1,0-0.1,0.1-0.1,0.3v2.5C153.5,9.2,154,9.1,154.3,9z"/>
		<path fill="#535353" d="M162,6v0.2c-0.3,0-0.6,0.1-0.7,0.2c-0.1,0.1-0.2,0.3-0.2,0.7v3.2c0,0.5,0.1,0.9,0.2,1.2
			c0.2,0.5,0.7,0.8,1.4,0.8c0.7,0,1.2-0.3,1.5-0.8c0.1-0.3,0.2-0.8,0.2-1.4V7.5c0-0.5-0.1-0.9-0.2-1c-0.1-0.1-0.3-0.2-0.7-0.3V6h2.1
			v0.2c-0.3,0-0.6,0.1-0.7,0.3c-0.1,0.1-0.2,0.5-0.2,1v2.6c0,0.7-0.1,1.2-0.3,1.6c-0.4,0.7-1,1.1-2,1.1c-1,0-1.6-0.4-2-1.1
			c-0.2-0.4-0.3-0.9-0.3-1.5V7.1c0-0.4,0-0.6-0.2-0.7c-0.1-0.1-0.3-0.2-0.7-0.2V6H162z"/>
		<path fill="#535353" d="M169.3,6.8c0.6-0.6,1.2-0.9,2-0.9c0.8,0,1.5,0.3,2,0.9c0.6,0.6,0.9,1.5,0.9,2.6c0,1.1-0.3,1.9-0.9,2.6
			c-0.6,0.6-1.2,0.9-2,0.9c-0.8,0-1.5-0.3-2.1-1c-0.6-0.6-0.8-1.5-0.8-2.5C168.4,8.3,168.7,7.4,169.3,6.8z M170,11.7
			c0.4,0.5,0.8,0.8,1.4,0.8c0.5,0,1-0.2,1.4-0.7c0.4-0.5,0.6-1.3,0.6-2.4c0-1.1-0.2-1.9-0.6-2.4c-0.4-0.5-0.8-0.7-1.4-0.7
			c-0.5,0-1,0.3-1.4,0.8c-0.4,0.5-0.6,1.3-0.6,2.3C169.4,10.4,169.6,11.2,170,11.7z"/>
		<path fill="#535353" d="M181.9,10.6c0.2,0.4,0.3,0.8,0.5,1.1c0.4,0.5,0.8,0.7,1.3,0.7c0.3,0,0.5-0.1,0.7-0.3
			c0.2-0.2,0.3-0.5,0.3-0.8c0-0.3-0.1-0.6-0.3-0.8c-0.1-0.2-0.4-0.4-0.9-0.7l-0.8-0.5c-0.2-0.2-0.4-0.3-0.6-0.5
			c-0.3-0.3-0.4-0.7-0.4-1c0-0.5,0.2-0.9,0.5-1.3c0.3-0.3,0.7-0.5,1.2-0.5c0.2,0,0.5,0.1,0.7,0.2c0.3,0.1,0.5,0.2,0.5,0.2
			c0.1,0,0.2,0,0.2-0.1c0-0.1,0.1-0.1,0.1-0.2h0.2l0.2,2.1h-0.2c-0.1-0.6-0.4-1.1-0.7-1.3c-0.3-0.3-0.6-0.4-1-0.4
			c-0.2,0-0.5,0.1-0.6,0.2c-0.2,0.2-0.3,0.4-0.3,0.7c0,0.3,0.1,0.5,0.2,0.7c0.1,0.2,0.4,0.4,0.7,0.6l0.8,0.5c0.5,0.3,0.8,0.6,1,0.9
			c0.2,0.3,0.3,0.6,0.3,1c0,0.5-0.2,1-0.5,1.3c-0.4,0.4-0.8,0.5-1.4,0.5c-0.3,0-0.6-0.1-0.9-0.2c-0.3-0.1-0.5-0.2-0.5-0.2
			c-0.1,0-0.2,0-0.2,0.1c0,0.1-0.1,0.1-0.1,0.2H182l-0.3-2.1H181.9z"/>
		<path fill="#535353" d="M188.7,12.5c0.3,0,0.5-0.1,0.6-0.2c0.1-0.1,0.1-0.3,0.1-0.7V7.1c0-0.4,0-0.6-0.1-0.7
			c-0.1-0.1-0.3-0.2-0.6-0.2V6h4.8l0,1.4h-0.2c-0.1-0.4-0.2-0.7-0.3-0.9c-0.2-0.1-0.5-0.2-1-0.2h-1.2c-0.1,0-0.2,0-0.2,0.1
			c0,0,0,0.1,0,0.3V9h1.4c0.4,0,0.6-0.1,0.7-0.2c0.1-0.1,0.2-0.4,0.3-0.8h0.2v2.3h-0.2c-0.1-0.4-0.2-0.6-0.3-0.8
			c-0.1-0.1-0.3-0.2-0.7-0.2h-1.4v2.5c0,0.2,0.1,0.3,0.2,0.4c0.1,0,0.5,0.1,1,0.1c0.6,0,1.1-0.1,1.4-0.2c0.3-0.1,0.6-0.5,0.8-1.1
			h0.3l-0.4,1.7h-4.9V12.5z"/>
		<path fill="#535353" d="M196.5,12.5c0.4,0,0.6-0.1,0.7-0.2c0.1-0.1,0.1-0.4,0.1-0.8V7.1c0-0.4,0-0.6-0.1-0.7
			c-0.1-0.1-0.3-0.2-0.7-0.2V6h2.6v0.2c-0.4,0-0.6,0.1-0.7,0.2c-0.1,0.1-0.2,0.3-0.2,0.7v2c0.6-0.5,1-1,1.4-1.3
			c0.6-0.7,0.9-1.1,0.9-1.3c0-0.1-0.1-0.2-0.2-0.3c-0.1,0-0.3-0.1-0.5-0.1V6h2.4v0.2c-0.3,0-0.5,0.1-0.7,0.2
			c-0.2,0.1-0.4,0.3-0.7,0.6l-1.8,1.8l2.1,2.6c0.4,0.5,0.7,0.8,0.8,0.9c0.1,0.1,0.3,0.2,0.6,0.2v0.2H200v-0.2c0.2,0,0.4,0,0.5-0.1
			c0.1,0,0.1-0.1,0.1-0.2c0-0.1,0-0.1-0.1-0.3c-0.1-0.1-0.1-0.2-0.3-0.4l-1.7-2.1l-0.3,0.3v1.8c0,0.4,0.1,0.6,0.2,0.7
			c0.1,0.1,0.3,0.2,0.7,0.2v0.2h-2.5V12.5z"/>
		<path fill="#535353" d="M205.3,12.5c0.4,0,0.6-0.1,0.7-0.2c0.1-0.1,0.2-0.3,0.2-0.7V7.1c0-0.4-0.1-0.6-0.2-0.7
			c-0.1-0.1-0.3-0.2-0.7-0.2V6h2.7v0.2c-0.4,0-0.6,0.1-0.7,0.2c-0.1,0.1-0.2,0.3-0.2,0.7v4.4c0,0.4,0.1,0.6,0.2,0.7
			c0.1,0.1,0.3,0.2,0.7,0.2v0.2h-2.7V12.5z"/>
		<path fill="#535353" d="M214.7,6.1c0.3,0.1,0.5,0.2,0.6,0.2c0.1,0,0.2,0,0.3-0.1c0.1-0.1,0.1-0.1,0.1-0.2h0.2L216,8h-0.2
			c-0.2-0.5-0.4-0.8-0.6-1.1c-0.4-0.4-0.8-0.6-1.4-0.6c-0.6,0-1.1,0.2-1.5,0.7c-0.4,0.5-0.7,1.3-0.7,2.4c0,0.9,0.2,1.6,0.7,2.2
			c0.4,0.5,1,0.8,1.6,0.8c0.1,0,0.2,0,0.4,0c0.1,0,0.3-0.1,0.4-0.1c0.2-0.1,0.3-0.1,0.4-0.2c0.1-0.1,0.1-0.1,0.1-0.3v-1.6
			c0-0.4,0-0.6-0.1-0.7c-0.1-0.1-0.3-0.2-0.6-0.2V9.1h2.3v0.2c-0.2,0-0.4,0.1-0.4,0.1c-0.1,0.1-0.2,0.3-0.2,0.6v2
			c0,0.1-0.3,0.3-0.8,0.5c-0.5,0.2-1,0.3-1.5,0.3c-0.9,0-1.6-0.3-2.2-0.9c-0.7-0.6-1-1.5-1-2.5c0-0.9,0.3-1.7,0.8-2.4
			c0.6-0.7,1.4-1.1,2.3-1.1C214,5.9,214.4,6,214.7,6.1z"/>
		<path fill="#535353" d="M221.8,6v0.2c-0.3,0-0.6,0.1-0.7,0.2C221,6.5,221,6.8,221,7.1v3.2c0,0.5,0.1,0.9,0.2,1.2
			c0.2,0.5,0.7,0.8,1.4,0.8c0.7,0,1.2-0.3,1.5-0.8c0.1-0.3,0.2-0.8,0.2-1.4V7.5c0-0.5-0.1-0.9-0.2-1c-0.1-0.1-0.3-0.2-0.7-0.3V6h2.1
			v0.2c-0.3,0-0.6,0.1-0.7,0.3c-0.1,0.1-0.2,0.5-0.2,1v2.6c0,0.7-0.1,1.2-0.3,1.6c-0.4,0.7-1,1.1-2,1.1c-1,0-1.6-0.4-2-1.1
			c-0.2-0.4-0.3-0.9-0.3-1.5V7.1c0-0.4,0-0.6-0.2-0.7c-0.1-0.1-0.3-0.2-0.7-0.2V6H221.8z"/>
		<path fill="#535353" d="M232.2,6.1c0.3,0.1,0.5,0.2,0.6,0.2c0.1,0,0.2,0,0.2-0.1c0.1-0.1,0.1-0.1,0.2-0.2h0.2l0.1,2.2h-0.2
			c-0.1-0.4-0.3-0.8-0.5-1.1c-0.4-0.5-0.9-0.8-1.5-0.8c-0.6,0-1.1,0.3-1.5,0.8c-0.4,0.6-0.6,1.3-0.6,2.3c0,0.9,0.2,1.6,0.6,2.1
			c0.4,0.5,1,0.8,1.6,0.8c0.5,0,0.9-0.1,1.3-0.4c0.2-0.1,0.5-0.4,0.7-0.6l0.2,0.2c-0.2,0.3-0.4,0.5-0.7,0.7
			c-0.5,0.4-1.1,0.5-1.6,0.5c-1,0-1.7-0.3-2.3-1c-0.5-0.6-0.8-1.4-0.8-2.4c0-1,0.3-1.8,0.8-2.5c0.6-0.7,1.3-1,2.3-1
			C231.5,5.9,231.8,6,232.2,6.1z"/>
		<path fill="#535353" d="M236.3,12.5c0.4,0,0.6-0.1,0.7-0.2c0.1-0.1,0.1-0.4,0.1-0.8V7.1c0-0.4,0-0.6-0.1-0.7
			c-0.1-0.1-0.3-0.2-0.6-0.2V6h2.5v0.2c-0.3,0-0.5,0.1-0.6,0.2C238,6.5,238,6.8,238,7.1v1.9h2.7V7.1c0-0.4,0-0.6-0.1-0.7
			c-0.1-0.1-0.3-0.2-0.6-0.2V6h2.5v0.2c-0.3,0-0.5,0.1-0.6,0.2c-0.1,0.1-0.1,0.3-0.1,0.7v4.4c0,0.4,0,0.6,0.1,0.7
			c0.1,0.1,0.3,0.2,0.6,0.2v0.2h-2.5v-0.2c0.4,0,0.6-0.1,0.7-0.2c0.1-0.1,0.1-0.4,0.1-0.8V9.5H238v2.1c0,0.4,0,0.6,0.1,0.7
			c0.1,0.1,0.3,0.2,0.6,0.2v0.2h-2.5V12.5z"/>
		<path fill="#535353" d="M245,12.5c0.4,0,0.6-0.1,0.7-0.2c0.1-0.1,0.2-0.3,0.2-0.7V7.1c0-0.4-0.1-0.6-0.2-0.7
			c-0.1-0.1-0.3-0.2-0.7-0.2V6h2.7v0.2c-0.4,0-0.6,0.1-0.7,0.2c-0.1,0.1-0.2,0.3-0.2,0.7v4.4c0,0.4,0.1,0.6,0.2,0.7
			c0.1,0.1,0.3,0.2,0.7,0.2v0.2H245V12.5z"/>
	</g>
</g>
</svg>
