<?xml version="1.0" encoding="utf-8"?>
<!-- Generator: Adobe Illustrator 19.1.0, SVG Export Plug-In . SVG Version: 6.00 Build 0)  -->
<!DOCTYPE svg PUBLIC "-//W3C//DTD SVG 1.1//EN" "http://www.w3.org/Graphics/SVG/1.1/DTD/svg11.dtd">
<svg version="1.1" id="レイヤー_1" xmlns="http://www.w3.org/2000/svg" xmlns:xlink="http://www.w3.org/1999/xlink" x="0px"
	 y="0px" width="184.2px" height="24.8px" viewBox="0 0 184.2 24.8" enable-background="new 0 0 184.2 24.8" xml:space="preserve">
<g>
	<g>
		<path fill="#535353" d="M1.1,24.3v-0.7c0.8-0.1,1.5-0.5,1.9-1c0.4-0.6,1.1-2.2,2.1-4.9l6.7-17.7h0.6l8.1,20.4
			c0.5,1.4,1,2.2,1.3,2.5c0.3,0.3,0.9,0.5,1.6,0.7v0.7h-8.2v-0.7c0.9-0.1,1.6-0.2,1.8-0.3c0.3-0.1,0.4-0.5,0.4-1
			c0-0.2-0.1-0.5-0.2-0.9c-0.1-0.4-0.3-0.9-0.4-1.4l-1.3-3.5H7.1c-0.8,2.4-1.3,3.8-1.5,4.3c-0.2,0.5-0.2,0.9-0.2,1.2
			c0,0.6,0.2,1,0.7,1.3c0.3,0.1,0.8,0.2,1.5,0.3v0.7H1.1z M15.1,15.1l-3.7-9.9l-3.7,9.9H15.1z"/>
		<path fill="#535353" d="M36.4,3.2c2-2.1,4.4-3.2,7.4-3.2c2.9,0,5.4,1.1,7.4,3.2c2.2,2.3,3.2,5.4,3.2,9.2c0,3.9-1.1,7-3.4,9.3
			c-2,2.1-4.4,3.1-7.3,3.1c-3,0-5.6-1.1-7.6-3.4c-2-2.3-3.1-5.3-3.1-9C33.1,8.6,34.2,5.5,36.4,3.2z M38.8,20.8
			c1.3,1.8,3,2.7,4.9,2.7c1.9,0,3.5-0.9,4.9-2.6c1.4-1.8,2-4.6,2-8.5c0-3.9-0.7-6.8-2.1-8.5c-1.4-1.7-3-2.6-4.9-2.6
			c-1.9,0-3.6,0.9-4.9,2.7c-1.3,1.8-2,4.6-2,8.4C36.8,16.2,37.5,19,38.8,20.8z"/>
		<path fill="#535353" d="M73.4,0.5v0.7c-0.8,0-1.3,0-1.7,0.2c-0.4,0.2-0.6,0.5-0.6,1c0,0.2,0,0.3,0.1,0.6c0.1,0.2,0.2,0.5,0.4,0.9
			l4.8,7.8l4.7-7.9c0.2-0.3,0.3-0.6,0.4-0.8c0.1-0.2,0.1-0.4,0.1-0.5c0-0.5-0.2-0.9-0.7-1c-0.3-0.1-0.8-0.2-1.5-0.2V0.5h7.1v0.7
			c-0.7,0-1.2,0.3-1.8,0.7c-0.8,0.6-1.7,1.8-2.7,3.5l-4.8,8.1v7c0,1.4,0.2,2.3,0.6,2.6c0.4,0.3,1.3,0.6,2.7,0.6v0.7h-9.9v-0.7
			c1.5-0.1,2.4-0.3,2.7-0.7c0.4-0.4,0.5-1.4,0.5-2.9v-6.2l-4.2-6.9c-1.5-2.4-2.5-3.9-3.1-4.6c-0.6-0.7-1.3-1-2.2-1.1V0.5H73.4z"/>
		<path fill="#535353" d="M92,24.3v-0.7c0.8-0.1,1.5-0.5,1.9-1c0.4-0.6,1.1-2.2,2.1-4.9l6.7-17.7h0.6l8.1,20.4
			c0.5,1.4,1,2.2,1.3,2.5c0.3,0.3,0.9,0.5,1.6,0.7v0.7h-8.2v-0.7c0.9-0.1,1.6-0.2,1.8-0.3c0.3-0.1,0.4-0.5,0.4-1
			c0-0.2-0.1-0.5-0.2-0.9s-0.3-0.9-0.4-1.4l-1.3-3.5H98c-0.8,2.4-1.3,3.8-1.5,4.3c-0.2,0.5-0.2,0.9-0.2,1.2c0,0.6,0.2,1,0.7,1.3
			c0.3,0.1,0.8,0.2,1.5,0.3v0.7H92z M106,15.1l-3.7-9.9l-3.7,9.9H106z"/>
		<path fill="#535353" d="M123.4,23.7c1.3-0.2,2.2-0.5,2.6-1c0.4-0.5,0.6-1.7,0.6-3.6V4.4c0-1.3-0.2-2.1-0.6-2.5
			c-0.4-0.4-1.2-0.6-2.5-0.7V0.5h6.4l7.4,17.9l7.3-17.9h6.4v0.7c-1.2,0.1-2,0.3-2.3,0.7c-0.3,0.4-0.5,1.2-0.5,2.5v16
			c0,1.3,0.2,2.2,0.5,2.5c0.3,0.4,1.1,0.6,2.3,0.7v0.7H142v-0.7c1.3-0.1,2.1-0.4,2.4-0.8c0.3-0.4,0.5-1.4,0.5-2.9V3.8l-8.3,20.5
			h-0.4L128,4.7V19c0,2,0.3,3.2,0.8,3.8c0.3,0.4,1.1,0.6,2.3,0.8v0.7h-7.6V23.7z"/>
		<path fill="#535353" d="M160.4,24.3v-0.7c0.8-0.1,1.5-0.5,1.9-1c0.4-0.6,1.1-2.2,2.1-4.9l6.8-17.7h0.6l8.1,20.4
			c0.5,1.4,1,2.2,1.3,2.5c0.3,0.3,0.9,0.5,1.6,0.7v0.7h-8.2v-0.7c0.9-0.1,1.6-0.2,1.8-0.3c0.3-0.1,0.4-0.5,0.4-1
			c0-0.2-0.1-0.5-0.2-0.9c-0.1-0.4-0.3-0.9-0.4-1.4l-1.3-3.5h-8.5c-0.8,2.4-1.3,3.8-1.5,4.3c-0.2,0.5-0.2,0.9-0.2,1.2
			c0,0.6,0.2,1,0.7,1.3c0.3,0.1,0.8,0.2,1.5,0.3v0.7H160.4z M174.4,15.1l-3.7-9.9l-3.7,9.9H174.4z"/>
	</g>
</g>
</svg>
