<?xml version="1.0" encoding="utf-8"?>
<!-- Generator: Adobe Illustrator 16.0.0, SVG Export Plug-In . SVG Version: 6.00 Build 0)  -->
<!DOCTYPE svg PUBLIC "-//W3C//DTD SVG 1.1//EN" "http://www.w3.org/Graphics/SVG/1.1/DTD/svg11.dtd">
<svg version="1.1" xmlns="http://www.w3.org/2000/svg" xmlns:xlink="http://www.w3.org/1999/xlink" x="0px" y="0px" width="201px"
	 height="10px" viewBox="0 0 201 10" enable-background="new 0 0 201 10" xml:space="preserve">
<g id="BG" display="none">
	<rect y="-78" display="inline" fill="#E6E6E6" width="201" height="163"/>
</g>
<g id="Homeヘッダーフッター銀座">
	<g>
		<g>
			<path fill="#FFFFFF" d="M0.1,8.79c0.449-0.047,0.73-0.143,0.84-0.291c0.111-0.146,0.166-0.49,0.166-1.029V1.838
				c0-0.457-0.062-0.756-0.186-0.897C0.796,0.799,0.524,0.709,0.1,0.67V0.43h3.24c0.674,0,1.235,0.095,1.685,0.285
				c0.854,0.359,1.28,1.02,1.28,1.983c0,0.646-0.189,1.144-0.568,1.489C5.358,4.536,4.842,4.763,4.191,4.874l2.411,3.299
				C6.75,8.374,6.899,8.521,7.047,8.614c0.148,0.092,0.339,0.15,0.571,0.176v0.241H5.735L2.807,5.026L2.294,5.057V7.62
				c0,0.48,0.065,0.785,0.197,0.914S2.909,8.748,3.351,8.79v0.241H0.1V8.79z M4.1,4.283C4.72,4,5.031,3.467,5.031,2.686
				c0-0.752-0.278-1.266-0.834-1.539C3.9,0.999,3.505,0.924,3.014,0.924c-0.331,0-0.534,0.027-0.608,0.08S2.294,1.18,2.294,1.375
				v3.2C3.136,4.542,3.738,4.444,4.1,4.283z"/>
			<path fill="#FFFFFF" d="M10.245,8.79c0.43-0.051,0.709-0.136,0.837-0.256c0.128-0.119,0.191-0.424,0.191-0.912V1.838
				c0-0.461-0.063-0.762-0.188-0.904c-0.125-0.142-0.406-0.229-0.84-0.264V0.43h6.216L16.5,2.29h-0.297
				c-0.1-0.572-0.248-0.943-0.445-1.111c-0.199-0.169-0.641-0.254-1.326-0.254h-1.593c-0.172,0-0.278,0.031-0.317,0.093
				c-0.041,0.062-0.061,0.177-0.061,0.346v2.901h1.805c0.5,0,0.817-0.082,0.955-0.246c0.137-0.165,0.247-0.498,0.33-0.998h0.275
				v3.002h-0.275c-0.087-0.504-0.199-0.837-0.336-1c-0.138-0.162-0.453-0.244-0.949-0.244h-1.805v3.219
				c0,0.258,0.073,0.41,0.221,0.457C12.829,8.5,13.268,8.523,14,8.523c0.793,0,1.379-0.097,1.756-0.289
				c0.378-0.192,0.717-0.659,1.018-1.399H17.1l-0.531,2.196h-6.324V8.79z"/>
			<path fill="#FFFFFF" d="M20.354,6.416c0.197,0.584,0.43,1.05,0.696,1.396c0.464,0.604,1.04,0.907,1.728,0.907
				c0.373,0,0.695-0.131,0.968-0.393c0.271-0.263,0.407-0.629,0.407-1.099c0-0.423-0.137-0.792-0.41-1.104
				c-0.179-0.199-0.555-0.497-1.129-0.895l-0.998-0.692c-0.301-0.212-0.54-0.425-0.719-0.642C20.565,3.485,20.4,3.032,20.4,2.538
				c0-0.656,0.196-1.202,0.589-1.639c0.392-0.436,0.912-0.653,1.559-0.653c0.268,0,0.588,0.073,0.963,0.219
				c0.375,0.146,0.59,0.22,0.643,0.22c0.145,0,0.245-0.039,0.301-0.115c0.055-0.076,0.098-0.184,0.128-0.323h0.24l0.257,2.768
				h-0.279c-0.191-0.833-0.496-1.415-0.918-1.745c-0.42-0.33-0.836-0.496-1.248-0.496c-0.319,0-0.599,0.105-0.836,0.314
				c-0.238,0.21-0.357,0.5-0.357,0.873c0,0.334,0.091,0.62,0.273,0.857c0.182,0.24,0.466,0.492,0.85,0.755l1.027,0.704
				c0.644,0.44,1.098,0.845,1.361,1.213c0.26,0.373,0.39,0.812,0.39,1.32c0,0.682-0.231,1.25-0.694,1.707s-1.054,0.686-1.773,0.686
				c-0.361,0-0.74-0.076-1.134-0.229c-0.395-0.152-0.62-0.229-0.677-0.229c-0.138,0-0.23,0.047-0.277,0.141
				c-0.048,0.093-0.079,0.191-0.094,0.298h-0.258l-0.349-2.768H20.354z"/>
			<path fill="#FFFFFF" d="M28.579,8.79c0.43-0.051,0.709-0.136,0.836-0.256c0.128-0.119,0.191-0.424,0.191-0.912V1.838
				c0-0.461-0.062-0.762-0.188-0.904c-0.126-0.142-0.406-0.229-0.84-0.264V0.43h6.215l0.041,1.859h-0.298
				c-0.099-0.572-0.247-0.943-0.445-1.111c-0.198-0.169-0.64-0.254-1.325-0.254h-1.594c-0.172,0-0.277,0.031-0.317,0.093
				s-0.06,0.177-0.06,0.346v2.901H32.6c0.499,0,0.816-0.082,0.954-0.246c0.138-0.165,0.247-0.498,0.331-0.998h0.274v3.002h-0.274
				c-0.088-0.504-0.199-0.837-0.337-1C33.411,4.86,33.095,4.778,32.6,4.778h-1.805v3.219c0,0.258,0.072,0.41,0.22,0.457
				c0.146,0.046,0.587,0.069,1.319,0.069c0.793,0,1.378-0.097,1.756-0.289c0.377-0.192,0.717-0.659,1.018-1.399h0.326l-0.531,2.196
				h-6.324V8.79z"/>
			<path fill="#FFFFFF" d="M38.065,8.79c0.449-0.047,0.729-0.143,0.84-0.291c0.11-0.146,0.166-0.49,0.166-1.029V1.838
				c0-0.457-0.062-0.756-0.186-0.897c-0.125-0.142-0.397-0.231-0.82-0.271V0.43h3.239c0.675,0,1.235,0.095,1.685,0.285
				c0.854,0.359,1.28,1.02,1.28,1.983c0,0.646-0.189,1.144-0.568,1.489c-0.379,0.348-0.894,0.575-1.546,0.686l2.412,3.299
				c0.148,0.201,0.297,0.349,0.445,0.441c0.148,0.092,0.338,0.15,0.57,0.176v0.241h-1.884l-2.927-4.005l-0.514,0.031V7.62
				c0,0.48,0.066,0.785,0.197,0.914c0.132,0.129,0.418,0.214,0.859,0.256v0.241h-3.25V8.79z M42.064,4.283
				c0.62-0.283,0.931-0.815,0.931-1.597c0-0.752-0.277-1.266-0.834-1.539c-0.297-0.148-0.691-0.223-1.182-0.223
				c-0.332,0-0.535,0.027-0.609,0.08s-0.111,0.176-0.111,0.37v3.2C41.1,4.542,41.702,4.444,42.064,4.283z"/>
			<path fill="#FFFFFF" d="M50.449,0.43v0.222c-0.293,0.005-0.492,0.026-0.599,0.064c-0.187,0.069-0.279,0.208-0.279,0.419
				c0,0.107,0.033,0.258,0.1,0.451s0.19,0.515,0.372,0.963l1.831,4.526l1.662-4.899c0.074-0.217,0.13-0.4,0.168-0.551
				s0.057-0.273,0.057-0.367c0-0.254-0.097-0.426-0.291-0.516c-0.113-0.053-0.302-0.082-0.564-0.091V0.43h2.394v0.222
				c-0.247,0.038-0.431,0.112-0.548,0.222c-0.18,0.166-0.356,0.498-0.531,0.997l-2.592,7.312h-0.176L48.56,2.038
				c-0.243-0.605-0.438-0.982-0.585-1.131c-0.147-0.148-0.361-0.234-0.644-0.255V0.43H50.449z"/>
			<path fill="#FFFFFF" d="M56.6,9.031V8.79c0.301-0.037,0.525-0.164,0.677-0.377c0.15-0.215,0.408-0.799,0.773-1.756l2.438-6.379
				h0.233l2.914,7.369c0.195,0.488,0.35,0.79,0.467,0.906c0.115,0.115,0.311,0.194,0.585,0.236v0.241h-2.976V8.79
				c0.342-0.033,0.562-0.074,0.662-0.123c0.098-0.049,0.148-0.168,0.148-0.357c0-0.062-0.02-0.174-0.058-0.334
				s-0.091-0.329-0.16-0.506l-0.468-1.25h-3.084c-0.304,0.85-0.485,1.369-0.545,1.557c-0.059,0.188-0.088,0.336-0.088,0.445
				c0,0.219,0.08,0.371,0.24,0.455c0.098,0.051,0.285,0.088,0.559,0.113v0.241H56.6z M61.639,5.692l-1.342-3.58l-1.347,3.58H61.639z
				"/>
			<path fill="#FFFFFF" d="M66.149,0.43h6.615l0.062,2.209h-0.279c-0.138-0.694-0.312-1.146-0.523-1.355
				c-0.211-0.21-0.656-0.314-1.334-0.314h-0.65v6.652c0,0.501,0.07,0.812,0.211,0.932c0.141,0.119,0.449,0.198,0.926,0.236v0.241
				h-3.411V8.79c0.495-0.042,0.804-0.133,0.925-0.271c0.123-0.139,0.184-0.488,0.184-1.049v-6.5h-0.657
				c-0.647,0-1.088,0.104-1.322,0.311c-0.234,0.208-0.411,0.66-0.528,1.359h-0.285L66.149,0.43z"/>
			<path fill="#FFFFFF" d="M75.595,8.79c0.476-0.038,0.784-0.117,0.926-0.236c0.141-0.12,0.211-0.431,0.211-0.932V1.838
				c0-0.478-0.07-0.785-0.211-0.923c-0.142-0.138-0.45-0.22-0.926-0.245V0.43h3.462v0.24c-0.477,0.025-0.785,0.107-0.926,0.245
				S77.92,1.361,77.92,1.838v5.783c0,0.501,0.07,0.812,0.211,0.932c0.141,0.119,0.449,0.198,0.926,0.236v0.241h-3.462V8.79z"/>
			<path fill="#FFFFFF" d="M83.168,1.395c0.72-0.767,1.605-1.149,2.656-1.149c1.055,0,1.942,0.386,2.662,1.155
				c0.781,0.834,1.172,1.944,1.172,3.332c0,1.41-0.404,2.531-1.211,3.365c-0.725,0.744-1.598,1.117-2.623,1.117
				c-1.097,0-2.007-0.413-2.73-1.238c-0.735-0.842-1.103-1.924-1.103-3.244C81.992,3.345,82.383,2.233,83.168,1.395z M84.043,7.764
				c0.484,0.654,1.079,0.98,1.784,0.98c0.69,0,1.28-0.318,1.771-0.955s0.734-1.655,0.734-3.057c0-1.417-0.248-2.441-0.743-3.072
				c-0.495-0.63-1.083-0.945-1.762-0.945c-0.702,0-1.296,0.327-1.782,0.98c-0.485,0.654-0.729,1.666-0.729,3.037
				C83.317,6.1,83.559,7.111,84.043,7.764z"/>
			<path fill="#FFFFFF" d="M92.563,8.79c0.484-0.055,0.795-0.176,0.932-0.365C93.631,8.237,93.7,7.8,93.7,7.116V1.387l-0.159-0.209
				c-0.171-0.225-0.317-0.362-0.437-0.415c-0.121-0.054-0.301-0.084-0.541-0.093V0.43h1.997l4.517,6.219V2.33
				c0-0.71-0.096-1.173-0.286-1.388c-0.126-0.139-0.403-0.229-0.834-0.271V0.43h2.747v0.24c-0.445,0.051-0.742,0.172-0.891,0.362
				S99.59,1.659,99.59,2.34v6.843h-0.199l-5.177-7.128v5.061c0,0.71,0.093,1.173,0.28,1.389c0.121,0.139,0.395,0.234,0.816,0.285
				v0.241h-2.748V8.79z"/>
			<path fill="#FFFFFF" d="M105.24,4.273c-0.131,0.134-0.281,0.2-0.447,0.2c-0.184,0-0.334-0.072-0.453-0.216
				c-0.117-0.144-0.176-0.31-0.176-0.495c0-0.195,0.061-0.361,0.182-0.498c0.123-0.138,0.271-0.207,0.447-0.207
				c0.166,0,0.316,0.067,0.447,0.2c0.131,0.134,0.197,0.3,0.197,0.499C105.438,3.967,105.371,4.14,105.24,4.273z M104.35,8.929
				c-0.125-0.14-0.186-0.31-0.186-0.508c0-0.19,0.061-0.356,0.182-0.498c0.123-0.142,0.273-0.213,0.451-0.213
				c0.18,0,0.336,0.069,0.469,0.206c0.135,0.138,0.201,0.304,0.201,0.498c0,0.187-0.064,0.354-0.189,0.502s-0.293,0.223-0.502,0.223
				C104.615,9.139,104.473,9.069,104.35,8.929z"/>
			<path fill="#FFFFFF" d="M113.633,1.827c0.385,0.824,0.578,1.772,0.578,2.844c0,0.842-0.119,1.635-0.355,2.38
				c-0.445,1.401-1.217,2.101-2.312,2.101c-0.75,0-1.367-0.379-1.852-1.136c-0.518-0.808-0.777-1.906-0.777-3.294
				c0-1.092,0.174-2.031,0.52-2.818c0.469-1.071,1.189-1.606,2.16-1.606C112.471,0.296,113.15,0.806,113.633,1.827z M112.766,7.768
				c0.209-0.681,0.314-1.666,0.314-2.955c0-1.027-0.064-1.848-0.189-2.461c-0.236-1.143-0.678-1.713-1.326-1.713
				c-0.646,0-1.09,0.588-1.33,1.764c-0.125,0.625-0.189,1.45-0.189,2.473c0,0.961,0.066,1.729,0.195,2.303
				c0.244,1.074,0.701,1.611,1.371,1.611C112.172,8.79,112.555,8.45,112.766,7.768z"/>
			<path fill="#FFFFFF" d="M118.742,8.292c0.344,0.243,0.637,0.365,0.877,0.365c0.533,0,0.928-0.201,1.188-0.602
				s0.389-0.836,0.389-1.307c0-0.453-0.105-0.852-0.314-1.195c-0.354-0.58-0.953-0.871-1.795-0.871
				c-0.049,0-0.096,0.002-0.143,0.004c-0.045,0.002-0.098,0.008-0.16,0.016l-0.01-0.165c0.609-0.245,1.088-0.526,1.439-0.845
				c0.35-0.316,0.525-0.736,0.525-1.256c0-0.462-0.139-0.812-0.414-1.055c-0.277-0.24-0.592-0.361-0.945-0.361
				c-0.42,0-0.789,0.172-1.109,0.514c-0.174,0.187-0.363,0.475-0.564,0.863l-0.178-0.044c0.152-0.644,0.436-1.157,0.852-1.542
				c0.414-0.386,0.895-0.578,1.439-0.578c0.582,0,1.033,0.178,1.352,0.533c0.316,0.355,0.477,0.766,0.477,1.231
				c0,0.411-0.131,0.787-0.395,1.13c-0.148,0.195-0.379,0.412-0.691,0.654c0.365,0.173,0.658,0.376,0.881,0.609
				c0.414,0.443,0.621,1.007,0.621,1.688c0,0.805-0.283,1.514-0.854,2.127c-0.568,0.613-1.379,0.92-2.43,0.92
				c-0.469,0-0.797-0.076-0.986-0.231c-0.189-0.154-0.283-0.32-0.283-0.498c0-0.11,0.031-0.216,0.094-0.317
				c0.064-0.102,0.166-0.152,0.307-0.152C118.119,7.926,118.396,8.047,118.742,8.292z"/>
			<path fill="#FFFFFF" d="M125.648,5.692h2.891v0.812h-2.891V5.692z"/>
			<path fill="#FFFFFF" d="M133.168,8.292c0.344,0.243,0.637,0.365,0.877,0.365c0.533,0,0.928-0.201,1.188-0.602
				s0.389-0.836,0.389-1.307c0-0.453-0.105-0.852-0.314-1.195c-0.354-0.58-0.953-0.871-1.795-0.871
				c-0.049,0-0.096,0.002-0.143,0.004c-0.045,0.002-0.098,0.008-0.16,0.016l-0.01-0.165c0.609-0.245,1.088-0.526,1.439-0.845
				c0.35-0.316,0.525-0.736,0.525-1.256c0-0.462-0.139-0.812-0.414-1.055c-0.277-0.24-0.592-0.361-0.945-0.361
				c-0.42,0-0.789,0.172-1.109,0.514c-0.174,0.187-0.363,0.475-0.564,0.863l-0.178-0.044c0.152-0.644,0.436-1.157,0.852-1.542
				c0.414-0.386,0.895-0.578,1.439-0.578c0.582,0,1.033,0.178,1.352,0.533c0.316,0.355,0.477,0.766,0.477,1.231
				c0,0.411-0.131,0.787-0.395,1.13c-0.148,0.195-0.379,0.412-0.691,0.654c0.365,0.173,0.658,0.376,0.881,0.609
				c0.414,0.443,0.621,1.007,0.621,1.688c0,0.805-0.283,1.514-0.854,2.127c-0.568,0.613-1.379,0.92-2.43,0.92
				c-0.469,0-0.797-0.076-0.986-0.231c-0.189-0.154-0.283-0.32-0.283-0.498c0-0.11,0.031-0.216,0.094-0.317
				c0.064-0.102,0.166-0.152,0.307-0.152C132.545,7.926,132.822,8.047,133.168,8.292z"/>
			<path fill="#FFFFFF" d="M141.348,8.279c0.354,0.272,0.625,0.409,0.814,0.409c0.439,0,0.822-0.215,1.15-0.645
				s0.492-0.957,0.492-1.584c0-1.096-0.525-1.885-1.578-2.367c-0.584-0.267-1.127-0.4-1.631-0.4c-0.084,0-0.137-0.003-0.158-0.009
				c-0.02-0.007-0.047-0.028-0.076-0.067c0.008-0.033,0.014-0.062,0.02-0.085c0.006-0.023,0.012-0.046,0.02-0.067l1.246-3.033h2.449
				c0.123,0,0.217-0.023,0.283-0.07s0.154-0.133,0.26-0.26l0.092,0.088l-0.439,1.175c-0.016,0.038-0.059,0.062-0.127,0.073
				c-0.068,0.01-0.143,0.016-0.223,0.016h-2.213l-0.486,1.111c0.625,0.118,1.082,0.23,1.373,0.336
				c0.477,0.178,0.875,0.439,1.195,0.787c0.273,0.301,0.482,0.638,0.623,1.013c0.141,0.374,0.211,0.771,0.211,1.19
				c0,0.935-0.301,1.715-0.9,2.342c-0.602,0.627-1.361,0.939-2.279,0.939c-0.373,0-0.676-0.04-0.904-0.121
				c-0.381-0.131-0.572-0.365-0.572-0.704c0-0.127,0.041-0.238,0.123-0.333c0.082-0.096,0.209-0.143,0.381-0.143
				C140.709,7.87,140.994,8.005,141.348,8.279z"/>
			<path fill="#FFFFFF" d="M149.547,8.292c0.346,0.243,0.637,0.365,0.877,0.365c0.533,0,0.93-0.201,1.189-0.602
				c0.258-0.4,0.389-0.836,0.389-1.307c0-0.453-0.105-0.852-0.314-1.195c-0.355-0.58-0.953-0.871-1.795-0.871
				c-0.049,0-0.096,0.002-0.143,0.004c-0.045,0.002-0.1,0.008-0.16,0.016l-0.012-0.165c0.609-0.245,1.09-0.526,1.439-0.845
				c0.352-0.316,0.527-0.736,0.527-1.256c0-0.462-0.139-0.812-0.414-1.055c-0.277-0.24-0.592-0.361-0.947-0.361
				c-0.418,0-0.787,0.172-1.107,0.514c-0.176,0.187-0.363,0.475-0.566,0.863l-0.176-0.044c0.152-0.644,0.436-1.157,0.852-1.542
				c0.414-0.386,0.895-0.578,1.439-0.578c0.582,0,1.033,0.178,1.35,0.533c0.318,0.355,0.479,0.766,0.479,1.231
				c0,0.411-0.133,0.787-0.395,1.13c-0.148,0.195-0.379,0.412-0.691,0.654c0.365,0.173,0.658,0.376,0.879,0.609
				c0.416,0.443,0.623,1.007,0.623,1.688c0,0.805-0.285,1.514-0.854,2.127c-0.57,0.613-1.379,0.92-2.432,0.92
				c-0.469,0-0.797-0.076-0.984-0.231c-0.189-0.154-0.283-0.32-0.283-0.498c0-0.11,0.031-0.216,0.094-0.317s0.166-0.152,0.307-0.152
				C148.926,7.926,149.203,8.047,149.547,8.292z"/>
			<path fill="#FFFFFF" d="M157.729,8.279c0.352,0.272,0.625,0.409,0.814,0.409c0.439,0,0.822-0.215,1.15-0.645
				s0.492-0.957,0.492-1.584c0-1.096-0.527-1.885-1.58-2.367c-0.582-0.267-1.127-0.4-1.629-0.4c-0.084,0-0.137-0.003-0.158-0.009
				c-0.021-0.007-0.047-0.028-0.076-0.067c0.008-0.033,0.014-0.062,0.02-0.085c0.006-0.023,0.012-0.046,0.02-0.067l1.246-3.033
				h2.449c0.123,0,0.217-0.023,0.283-0.07s0.152-0.133,0.26-0.26l0.092,0.088l-0.441,1.175c-0.014,0.038-0.057,0.062-0.125,0.073
				c-0.068,0.01-0.143,0.016-0.223,0.016h-2.213l-0.486,1.111c0.625,0.118,1.082,0.23,1.371,0.336
				c0.477,0.178,0.875,0.439,1.195,0.787c0.275,0.301,0.482,0.638,0.625,1.013c0.141,0.374,0.211,0.771,0.211,1.19
				c0,0.935-0.301,1.715-0.9,2.342c-0.602,0.627-1.361,0.939-2.279,0.939c-0.375,0-0.676-0.04-0.904-0.121
				c-0.381-0.131-0.572-0.365-0.572-0.704c0-0.127,0.041-0.238,0.123-0.333c0.082-0.096,0.209-0.143,0.381-0.143
				C157.09,7.87,157.375,8.005,157.729,8.279z"/>
			<path fill="#FFFFFF" d="M164.645,5.692h2.891v0.812h-2.891V5.692z"/>
			<path fill="#FFFFFF" d="M170.773,8.885c1.393-1.607,2.34-2.787,2.838-3.54c0.5-0.753,0.748-1.485,0.748-2.2
				c0-0.626-0.152-1.103-0.457-1.43c-0.305-0.328-0.668-0.492-1.09-0.492c-0.521,0-0.945,0.211-1.27,0.635
				c-0.178,0.232-0.35,0.59-0.514,1.071l-0.246-0.058c0.191-0.973,0.514-1.648,0.969-2.026s0.943-0.567,1.465-0.567
				c0.645,0,1.166,0.225,1.562,0.675c0.398,0.45,0.598,1.001,0.598,1.652c0,0.693-0.215,1.361-0.646,2.005
				c-0.43,0.643-1.365,1.785-2.805,3.431h2.623c0.365,0,0.623-0.049,0.771-0.146c0.148-0.098,0.316-0.334,0.502-0.711l0.148,0.076
				l-0.633,1.771h-4.564V8.885z"/>
			<path fill="#FFFFFF" d="M183.863,0.43v0.209l-2.479,8.512h-0.75l2.309-7.763h-2.49c-0.369,0-0.635,0.067-0.797,0.203
				s-0.367,0.419-0.613,0.851l-0.201-0.102c0.248-0.678,0.402-1.095,0.461-1.254c0.059-0.158,0.137-0.377,0.23-0.656H183.863z"/>
			<path fill="#FFFFFF" d="M188.533,8.279c0.354,0.272,0.625,0.409,0.816,0.409c0.439,0,0.822-0.215,1.15-0.645
				s0.492-0.957,0.492-1.584c0-1.096-0.527-1.885-1.58-2.367c-0.584-0.267-1.127-0.4-1.631-0.4c-0.084,0-0.135-0.003-0.156-0.009
				c-0.021-0.007-0.047-0.028-0.078-0.067c0.008-0.033,0.016-0.062,0.021-0.085c0.006-0.023,0.012-0.046,0.02-0.067l1.246-3.033
				h2.449c0.121,0,0.217-0.023,0.283-0.07s0.152-0.133,0.26-0.26l0.092,0.088l-0.441,1.175c-0.016,0.038-0.057,0.062-0.125,0.073
				c-0.068,0.01-0.143,0.016-0.223,0.016h-2.215l-0.486,1.111c0.625,0.118,1.084,0.23,1.373,0.336
				c0.477,0.178,0.875,0.439,1.195,0.787c0.275,0.301,0.482,0.638,0.623,1.013c0.141,0.374,0.213,0.771,0.213,1.19
				c0,0.935-0.301,1.715-0.902,2.342c-0.6,0.627-1.359,0.939-2.279,0.939c-0.373,0-0.674-0.04-0.902-0.121
				c-0.383-0.131-0.572-0.365-0.572-0.704c0-0.127,0.041-0.238,0.123-0.333c0.082-0.096,0.209-0.143,0.381-0.143
				C187.896,7.87,188.182,8.005,188.533,8.279z"/>
			<path fill="#FFFFFF" d="M199.816,1.827c0.385,0.824,0.576,1.772,0.576,2.844c0,0.842-0.117,1.635-0.354,2.38
				c-0.447,1.401-1.217,2.101-2.314,2.101c-0.75,0-1.367-0.379-1.852-1.136c-0.518-0.808-0.775-1.906-0.775-3.294
				c0-1.092,0.172-2.031,0.52-2.818c0.469-1.071,1.188-1.606,2.158-1.606C198.652,0.296,199.332,0.806,199.816,1.827z
				 M198.947,7.768c0.209-0.681,0.314-1.666,0.314-2.955c0-1.027-0.062-1.848-0.189-2.461c-0.236-1.143-0.678-1.713-1.324-1.713
				c-0.648,0-1.092,0.588-1.332,1.764c-0.125,0.625-0.188,1.45-0.188,2.473c0,0.961,0.064,1.729,0.193,2.303
				c0.244,1.074,0.701,1.611,1.371,1.611C198.354,8.79,198.738,8.45,198.947,7.768z"/>
		</g>
	</g>
</g>
<g id="Slice">
	<rect id="_x3C_スライス_x3E__1_" fill="none" width="201" height="10"/>
</g>
</svg>
