<?xml version="1.0" encoding="utf-8"?>
<!-- Generator: Adobe Illustrator 16.0.0, SVG Export Plug-In . SVG Version: 6.00 Build 0)  -->
<!DOCTYPE svg PUBLIC "-//W3C//DTD SVG 1.1//EN" "http://www.w3.org/Graphics/SVG/1.1/DTD/svg11.dtd">
<svg version="1.1" xmlns="http://www.w3.org/2000/svg" xmlns:xlink="http://www.w3.org/1999/xlink" x="0px" y="0px" width="74px"
	 height="86px" viewBox="0 0 74 86" enable-background="new 0 0 74 86" xml:space="preserve">
<g id="BG" display="none">
	<rect x="-85" y="-113" display="inline" fill="#CCCCCC" width="1216" height="594"/>
</g>
<g id="Homeヘッダーフッター青山">
</g>
<g id="Homeヘッダーフッター銀座">
</g>
<g id="Homeヘッダーフッターのコピー">
	<g>
		<g>
			<path fill="#2D2D2D" d="M8.493,1.881c0.479,0.15,0.748,0.226,0.806,0.226c0.119,0,0.231-0.036,0.338-0.109
				c0.107-0.073,0.181-0.187,0.222-0.342h0.265L10.24,4.8H9.951C9.782,4.176,9.563,3.672,9.293,3.289
				c-0.518-0.721-1.213-1.08-2.086-1.08c-0.882,0-1.603,0.387-2.163,1.162c-0.56,0.775-0.84,1.842-0.84,3.199
				c0,1.248,0.295,2.246,0.883,2.99c0.589,0.746,1.335,1.118,2.237,1.118c0.651,0,1.253-0.173,1.802-0.52
				c0.316-0.196,0.663-0.492,1.04-0.889L10.4,9.53c-0.279,0.392-0.626,0.735-1.04,1.032c-0.706,0.502-1.471,0.752-2.295,0.752
				c-1.354,0-2.428-0.48-3.224-1.442C3.107,8.983,2.74,7.873,2.74,6.543c0-1.363,0.388-2.506,1.163-3.432
				C4.719,2.141,5.781,1.655,7.09,1.655C7.545,1.655,8.013,1.73,8.493,1.881z"/>
			<path fill="#2D2D2D" d="M14.752,10.822c0.464-0.055,0.764-0.146,0.901-0.275s0.206-0.457,0.206-0.982V3.337
				c0-0.497-0.067-0.821-0.203-0.974c-0.135-0.153-0.437-0.248-0.904-0.284v-0.26h6.694l0.043,2.003H21.17
				c-0.107-0.617-0.268-1.016-0.48-1.197S20,2.353,19.262,2.353h-1.715c-0.186,0-0.3,0.033-0.343,0.099
				c-0.043,0.066-0.064,0.191-0.064,0.373v3.124h1.944c0.537,0,0.879-0.089,1.027-0.265c0.147-0.178,0.266-0.535,0.356-1.075h0.296
				v3.233h-0.296c-0.095-0.543-0.216-0.901-0.362-1.076c-0.148-0.176-0.488-0.264-1.021-0.264H17.14v3.466
				c0,0.278,0.078,0.442,0.236,0.492s0.632,0.075,1.421,0.075c0.854,0,1.484-0.104,1.892-0.311c0.407-0.208,0.772-0.711,1.097-1.508
				h0.35l-0.572,2.365h-6.811V10.822z"/>
			<path fill="#2D2D2D" d="M26.229,10.822c0.521-0.059,0.854-0.189,1.003-0.393c0.147-0.203,0.221-0.673,0.221-1.41V2.852
				l-0.172-0.227c-0.185-0.24-0.342-0.39-0.471-0.447c-0.129-0.057-0.322-0.09-0.581-0.099v-0.26h2.149l4.864,6.698V3.865
				c0-0.766-0.103-1.264-0.308-1.494c-0.135-0.149-0.436-0.246-0.898-0.292v-0.26h2.959v0.26c-0.479,0.055-0.799,0.185-0.959,0.39
				s-0.24,0.674-0.24,1.408v7.369h-0.215l-5.574-7.677v5.45c0,0.765,0.1,1.264,0.301,1.496c0.131,0.149,0.425,0.252,0.88,0.307v0.26
				h-2.959V10.822z"/>
			<path fill="#2D2D2D" d="M39.213,1.819h7.125l0.066,2.379h-0.301c-0.147-0.747-0.336-1.233-0.562-1.46
				C45.312,2.514,44.834,2.4,44.104,2.4h-0.701v7.164c0,0.539,0.076,0.873,0.229,1.003c0.15,0.13,0.483,0.214,0.996,0.255v0.26
				h-3.673v-0.26c0.533-0.045,0.865-0.143,0.997-0.293c0.131-0.149,0.196-0.525,0.196-1.129v-7h-0.708
				c-0.697,0-1.172,0.111-1.424,0.335s-0.441,0.711-0.568,1.463h-0.309L39.213,1.819z"/>
			<path fill="#2D2D2D" d="M50.586,10.822c0.483-0.05,0.785-0.154,0.904-0.312c0.119-0.159,0.178-0.529,0.178-1.109V3.337
				c0-0.492-0.066-0.814-0.199-0.968c-0.134-0.152-0.428-0.249-0.883-0.29v-0.26h3.488c0.726,0,1.33,0.103,1.814,0.308
				c0.919,0.387,1.378,1.099,1.378,2.137c0,0.695-0.204,1.23-0.612,1.604s-0.963,0.619-1.664,0.737l2.597,3.554
				c0.159,0.217,0.319,0.375,0.479,0.475s0.365,0.162,0.615,0.189v0.26h-2.029l-3.151-4.313l-0.554,0.034v2.76
				c0,0.518,0.071,0.846,0.213,0.984s0.45,0.23,0.926,0.275v0.26h-3.5V10.822z M54.893,5.969c0.668-0.305,1.002-0.878,1.002-1.719
				c0-0.811-0.299-1.363-0.898-1.658c-0.319-0.16-0.744-0.239-1.273-0.239c-0.356,0-0.574,0.028-0.654,0.085
				s-0.121,0.19-0.121,0.399v3.446C53.854,6.246,54.502,6.143,54.893,5.969z"/>
			<path fill="#2D2D2D" d="M64.271,2.858c0.775-0.825,1.729-1.237,2.86-1.237c1.137,0,2.092,0.414,2.867,1.244
				c0.842,0.898,1.262,2.094,1.262,3.589c0,1.518-0.436,2.726-1.305,3.623c-0.779,0.802-1.721,1.203-2.824,1.203
				c-1.181,0-2.161-0.444-2.94-1.333c-0.792-0.906-1.187-2.071-1.187-3.493C63.004,4.959,63.426,3.761,64.271,2.858z M65.213,9.719
				c0.521,0.703,1.162,1.056,1.922,1.056c0.743,0,1.379-0.343,1.906-1.028c0.527-0.687,0.791-1.783,0.791-3.292
				c0-1.526-0.267-2.63-0.801-3.309c-0.533-0.679-1.166-1.019-1.896-1.019c-0.756,0-1.396,0.352-1.919,1.057
				c-0.523,0.703-0.785,1.794-0.785,3.271C64.431,7.926,64.691,9.014,65.213,9.719z"/>
		</g>
		<g>
			<path fill="#2D2D2D" d="M19.691,29.789l0.479-0.476c0.126-0.112,0.139-0.14,0.214-0.14c0.063,0,0.139,0.069,0.189,0.111
				l0.63,0.574c0.025,0.028,0.088,0.098,0.088,0.168c0,0.112-0.075,0.154-0.139,0.196c-0.176,0.099-0.227,0.126-0.428,0.28
				c-0.088,0.7-0.189,2.955-0.227,3.796l-0.102,2.676c0,0.014-0.013,0.042-0.013,0.056c0,0.519,0.177,0.658,0.416,0.715
				c0.063,0.014,0.794,0.014,0.933,0.014c0.58,0,0.857,0,0.996-0.49c0.113-0.393,0.34-1.583,0.441-2.073h0.062
				c0.051,0.322,0.252,1.737,0.328,2.003c0.037,0.168,0.075,0.196,0.239,0.365c0.05,0.055,0.113,0.168,0.113,0.321
				c0,0.21-0.126,0.462-0.517,0.659c-0.391,0.182-0.958,0.209-2.131,0.209c-1.008,0-1.789-0.027-1.789-1.288
				c0-1.163,0.29-6.583,0.314-7.34h-2.029c-0.062,0.574-0.227,2.073-0.504,3.222c0.126,0.098,0.429,0.294,0.795,0.616
				c0.491,0.435,0.743,0.938,0.743,1.232c0,0.07-0.038,0.546-0.504,0.546c-0.214,0-0.315-0.111-0.392-0.209
				c-0.289-0.365-0.668-0.855-0.92-1.135c-0.718,2.367-2.356,4.049-4.55,4.818l-0.025-0.084c1.715-1.092,3.075-2.802,3.731-4.889
				c0.075-0.238,0.126-0.42,0.163-0.561c-0.566-0.561-1.185-1.051-1.878-1.387v-0.098c0.517,0.098,1.173,0.252,2.055,0.7
				c0.202-0.938,0.303-1.808,0.353-2.773h-2.167c-0.492,0-0.996,0.028-1.487,0.126l-0.24-0.561c0.807,0.07,1.576,0.098,1.929,0.098
				h1.979c0.051-1.358-0.05-2.438-0.062-2.591c-0.038-0.378-0.101-0.673-0.164-0.925l1.551,0.504
				c0.037,0.015,0.126,0.07,0.126,0.197c0,0.111-0.214,0.293-0.392,0.462c-0.012,0.687-0.037,1.456-0.113,2.353H19.691z"/>
			<path fill="#2D2D2D" d="M39.07,29.972c0-0.168-0.379-0.505-0.529-0.645c0.125-0.028,0.201-0.028,0.289-0.028
				c0.832,0,1.613,0.925,1.613,1.346c0,0.195-0.062,0.209-0.58,0.378c-0.15,0.056-0.227,0.084-0.391,0.182
				c-2.457,1.303-2.723,1.457-3.34,1.667c-0.655,0.225-1.159,0.322-1.373,0.35c-0.014,0.267-0.025,0.589-0.025,1.079
				c0,1.751,0,2.214,2.344,2.214c1.223,0,1.814-0.197,2.281-0.351c0.328-0.112,0.416-0.112,0.529-0.112
				c0.303,0,1.097,0.057,1.097,0.574c0,0.379-0.466,0.49-0.63,0.519c-0.945,0.196-2.559,0.196-2.912,0.196
				c-3.377,0-3.453-0.91-3.453-3.544c0-0.575,0.051-3.124,0.051-3.656c0-0.841,0-1.093-0.189-1.345
				c-0.051-0.07-0.265-0.322-0.844-0.561c0.365-0.266,0.428-0.322,0.617-0.322c0.467,0,1.588,0.505,1.588,0.995
				c0,0.069-0.037,0.14-0.176,0.42c-0.051,0.112-0.089,0.238-0.114,0.477c-0.063,0.966-0.126,2.521-0.151,3.109
				C36.574,32.311,39.07,30.35,39.07,29.972z M41.111,28.627c0,0.238-0.126,0.477-0.303,0.477c-0.164,0-0.201-0.057-0.566-0.519
				c-0.441-0.561-1.047-0.995-1.374-1.233C40.078,27.465,41.111,27.898,41.111,28.627z M40.292,26.652
				c0.429,0,2.104,0.293,2.104,1.204c0,0.21-0.113,0.448-0.289,0.448c-0.139,0-0.202-0.057-0.781-0.645
				c-0.518-0.518-0.795-0.715-1.311-0.98C40.166,26.666,40.204,26.652,40.292,26.652z"/>
			<path fill="#2D2D2D" d="M51.076,37.451c2.344-2.438,2.344-5.463,2.344-6.639c0-1.163-0.025-1.163-0.971-1.443
				c0.189-0.154,0.479-0.364,0.82-0.364c0.365,0,0.881,0.267,1.07,0.435c0.076,0.084,0.113,0.154,0.113,0.266
				c0,0.112-0.113,0.574-0.125,0.673c-0.014,0.21-0.063,1.079-0.076,1.261c-0.088,1.177-0.24,2.844-1.412,4.44
				c-0.466,0.603-1.008,1.148-1.688,1.456L51.076,37.451z M61.285,31.064c-0.631,1.695-2.004,3.586-3.895,5.099
				c-0.429,0.336-0.467,0.392-0.795,0.784c-0.062,0.084-0.176,0.211-0.252,0.211c-0.239,0-0.807-1.149-0.807-1.332
				c0-0.098,0.152-0.518,0.177-0.615c0.101-0.574,0.101-2.396,0.101-2.773c0-0.533,0-3.124-0.075-3.461
				c-0.05-0.238-0.252-0.406-0.907-0.658c0.164-0.111,0.416-0.294,0.719-0.294c0.365,0,1.348,0.421,1.348,0.841
				c0,0.14-0.164,0.686-0.176,0.799c-0.063,0.363-0.102,0.826-0.113,1.555c-0.014,0.658-0.076,3.529-0.076,3.936
				c0,0.057,0,0.238,0.076,0.238c0.314,0,2.596-1.611,4.574-4.412L61.285,31.064z"/>
		</g>
	</g>
</g>
<g id="Slice">
	<rect id="_x3C_スライス_x3E__9_" fill="none" width="74" height="86"/>
</g>
</svg>
