<?xml version="1.0" encoding="utf-8"?>
<!-- Generator: Adobe Illustrator 16.0.0, SVG Export Plug-In . SVG Version: 6.00 Build 0)  -->
<!DOCTYPE svg PUBLIC "-//W3C//DTD SVG 1.1//EN" "http://www.w3.org/Graphics/SVG/1.1/DTD/svg11.dtd">
<svg version="1.1" xmlns="http://www.w3.org/2000/svg" xmlns:xlink="http://www.w3.org/1999/xlink" x="0px" y="0px" width="74px"
	 height="86px" viewBox="0 0 74 86" enable-background="new 0 0 74 86" xml:space="preserve">
<g id="BG" display="none">
	<rect x="-245" y="-113" display="inline" fill="#CCCCCC" width="1216" height="594"/>
</g>
<g id="Homeヘッダーフッター青山">
</g>
<g id="Homeヘッダーフッター銀座">
</g>
<g id="Homeヘッダーフッターのコピー">
	<g>
		<g>
			<path fill="#2D2D2D" d="M10.86,1.847c0.471,0.15,0.742,0.227,0.812,0.227c0.181,0,0.309-0.039,0.385-0.117
				c0.075-0.077,0.141-0.188,0.194-0.334h0.276l0.099,2.945h-0.289c-0.259-0.679-0.525-1.185-0.801-1.518
				c-0.496-0.583-1.142-0.875-1.938-0.875c-0.809,0-1.519,0.342-2.132,1.022S6.548,5.001,6.548,6.563
				c0,1.29,0.305,2.297,0.916,3.021s1.365,1.088,2.264,1.088c0.152,0,0.33-0.017,0.535-0.049c0.205-0.031,0.4-0.081,0.585-0.149
				c0.3-0.108,0.485-0.204,0.56-0.283s0.111-0.196,0.111-0.351V7.61c0-0.541-0.068-0.878-0.207-1.011
				c-0.137-0.133-0.438-0.216-0.9-0.247v-0.26h3.211v0.26c-0.312,0.022-0.519,0.079-0.621,0.17
				c-0.172,0.146-0.258,0.447-0.258,0.902v2.756c0,0.164-0.363,0.383-1.086,0.656c-0.725,0.273-1.421,0.41-2.09,0.41
				c-1.23,0-2.268-0.399-3.112-1.197C5.524,9.171,5.058,7.99,5.058,6.509c0-1.303,0.372-2.42,1.114-3.35
				c0.815-1.025,1.899-1.537,3.249-1.537C9.908,1.622,10.388,1.696,10.86,1.847z"/>
			<path fill="#2D2D2D" d="M20.358,10.788c0.514-0.041,0.846-0.125,0.997-0.254c0.151-0.13,0.228-0.464,0.228-1.004V3.304
				c0-0.516-0.076-0.848-0.228-0.995s-0.483-0.235-0.997-0.263v-0.26h3.729v0.26c-0.513,0.027-0.845,0.115-0.996,0.263
				c-0.152,0.147-0.229,0.479-0.229,0.995V9.53c0,0.54,0.076,0.874,0.229,1.004c0.151,0.129,0.483,0.213,0.996,0.254v0.26h-3.729
				V10.788z"/>
			<path fill="#2D2D2D" d="M30.794,10.788c0.52-0.059,0.854-0.189,1.002-0.393c0.148-0.202,0.222-0.672,0.222-1.41V2.817
				l-0.173-0.226c-0.184-0.241-0.341-0.39-0.471-0.447c-0.129-0.058-0.322-0.09-0.58-0.099v-0.26h2.149l4.864,6.697V3.831
				c0-0.765-0.104-1.263-0.309-1.494c-0.135-0.148-0.435-0.246-0.898-0.291v-0.26h2.96v0.26c-0.479,0.055-0.8,0.184-0.96,0.389
				s-0.24,0.675-0.24,1.408v7.369h-0.215l-5.574-7.676v5.449c0,0.766,0.101,1.264,0.302,1.496c0.131,0.15,0.425,0.252,0.88,0.307
				v0.26h-2.959V10.788z"/>
			<path fill="#2D2D2D" d="M46.137,10.892l5.524-8.572h-2.903c-0.729,0-1.249,0.202-1.557,0.607
				c-0.185,0.242-0.33,0.659-0.437,1.252h-0.326l0.252-2.393h6.65v0.156l-5.523,8.572h3.269c0.741,0,1.282-0.193,1.622-0.58
				c0.211-0.246,0.402-0.695,0.572-1.348h0.295l-0.314,2.461h-7.124V10.892z"/>
			<path fill="#2D2D2D" d="M60.233,11.048v-0.26c0.324-0.04,0.567-0.176,0.729-0.406c0.162-0.23,0.44-0.859,0.834-1.89l2.625-6.87
				h0.25l3.141,7.936c0.209,0.526,0.375,0.852,0.501,0.977c0.125,0.124,0.335,0.209,0.63,0.254v0.26h-3.203v-0.26
				c0.367-0.035,0.605-0.08,0.711-0.133c0.107-0.051,0.16-0.18,0.16-0.384c0-0.067-0.02-0.188-0.061-0.36s-0.1-0.354-0.173-0.545
				l-0.505-1.346h-3.32c-0.327,0.916-0.522,1.475-0.586,1.676c-0.063,0.202-0.096,0.362-0.096,0.48c0,0.235,0.086,0.398,0.258,0.489
				c0.107,0.055,0.308,0.095,0.603,0.122v0.26H60.233z M65.66,7.452l-1.444-3.855l-1.45,3.855H65.66z"/>
		</g>
		<g>
			<path fill="#2D2D2D" d="M23.278,30.218c0.113-0.182,0.15-0.182,0.188-0.182c0.05,0,0.101,0.027,0.239,0.141l0.504,0.447
				c0.076,0.057,0.127,0.127,0.127,0.211c0,0.14-0.102,0.154-0.189,0.154h-1.185v1.848h0.731l0.377-0.434
				c0.127-0.154,0.139-0.168,0.202-0.168c0.075,0,0.177,0.098,0.228,0.141l0.44,0.434c0.05,0.057,0.126,0.126,0.126,0.21
				c0,0.14-0.113,0.154-0.201,0.154h-1.903v3.81c0.327-0.111,1.449-0.49,1.626-0.561l0.025,0.07
				c-0.479,0.406-1.109,0.785-1.929,1.219c-0.604,0.336-1.336,0.729-1.815,0.967c-0.025,0.126-0.051,0.336-0.227,0.336
				c-0.062,0-0.113-0.027-0.151-0.098l-0.731-1.232c0.656,0.014,0.921,0.014,2.357-0.42v-4.091h-0.781
				c-0.315,0-0.92,0.014-1.487,0.126l-0.239-0.561c0.857,0.084,1.727,0.098,1.928,0.098h0.58v-1.834
				c-0.566,0.027-0.807,0.084-0.971,0.111l-0.201-0.434c-0.555,0.729-1.047,1.274-1.525,1.652l-0.037-0.027
				c1.084-1.457,2.356-4.357,2.596-5.127c0.062-0.211,0.151-0.645,0.151-0.883l1.108,0.603c0.039,0.014,0.139,0.084,0.139,0.183
				c0,0.153-0.213,0.209-0.377,0.266l-0.014,0.014c0.656,0.127,1.904,0.672,1.904,1.514c0,0.111-0.025,0.545-0.479,0.545
				c-0.303,0-0.353-0.084-0.781-0.91c-0.114-0.238-0.353-0.672-0.731-0.967c-0.517,1.079-1.135,2.102-1.865,3.026
				c0.681,0.069,1.462,0.084,1.967,0.084L23.278,30.218z M20.354,34.253c0.706,0.504,1.323,1.12,1.323,1.834
				c0,0.519-0.365,0.617-0.504,0.617c-0.416,0-0.441-0.406-0.504-1.163c-0.025-0.267-0.102-0.687-0.365-1.204L20.354,34.253z
				 M23.14,36.521c0.075-0.224,0.566-1.597,0.63-2.507l1.059,0.658c0.038,0.041,0.101,0.125,0.101,0.21
				c0,0.084-0.051,0.14-0.101,0.168s-0.29,0.084-0.327,0.112c-0.102,0.098-0.529,0.588-0.631,0.686
				c-0.101,0.113-0.592,0.589-0.693,0.688L23.14,36.521z M30.538,34.112c0.037,0.042,0.062,0.098,0.062,0.154
				c0,0.224-0.265,0.195-0.592,0.168c-0.391,0.141-0.529,0.182-1.879,0.462c0.706,1.106,2.029,2.493,3.265,2.745v0.084
				c-0.593,0.197-0.781,0.322-1.286,0.883c-1.979-1.666-2.974-4.244-3.125-5.925h-0.668v0.196c-0.025,2.087-0.025,2.324-0.025,4.132
				c0.277-0.126,1.525-0.658,1.777-0.771l0.012,0.042c-0.73,0.687-0.781,0.729-2.747,2.073c-0.151,0.084-0.177,0.126-0.302,0.225
				c-0.025,0.209-0.063,0.477-0.252,0.477c-0.063,0-0.127-0.015-0.164-0.085l-0.781-1.261c0.264,0.014,0.579,0.014,1.588-0.363
				c0-1.178,0.037-6.359,0.037-7.425c0-0.98,0-1.821-0.062-2.591c-0.038-0.393-0.038-0.435-0.051-0.589l1.071,0.687h2.445
				l0.327-0.379c0.038-0.041,0.113-0.098,0.189-0.098c0.062,0,0.151,0.07,0.164,0.084l0.542,0.504
				c0.038,0.043,0.101,0.113,0.101,0.197c0,0.069-0.051,0.14-0.076,0.182c-0.05,0.042-0.289,0.266-0.327,0.322
				c-0.038,1.19,0.05,3.096,0.05,4.286c0,0.392-0.34,0.574-0.643,0.574c-0.277,0-0.277-0.267-0.264-0.42h-1.727
				c0.238,1.009,0.592,1.653,0.844,2.073c0.303-0.238,0.744-0.645,1.109-1.051c0.139-0.168,0.164-0.21,0.328-0.532L30.538,34.112z
				 M26.315,27.767v2.073h2.609v-2.073H26.315z M26.315,30.177v2.17h2.609v-2.17H26.315z"/>
			<path fill="#2D2D2D" d="M51.34,28.062l0.542-0.757c0.076-0.112,0.126-0.169,0.189-0.169c0.075,0,0.125,0.043,0.238,0.141
				l0.832,0.756c0.014,0.015,0.127,0.113,0.127,0.211c0,0.141-0.113,0.154-0.189,0.154h-8.924c0.088,5.154-0.139,7.451-2.041,9.848
				l-0.102-0.084c1.261-2.284,1.261-5.071,1.261-7.732c0-0.883,0-2.115-0.151-2.956l1.16,0.589h3.188c0-0.855,0-1.121-0.213-1.766
				l1.184,0.35c0.152,0.043,0.252,0.07,0.252,0.197c0,0.154-0.163,0.266-0.365,0.392v0.827H51.34z M50.458,35.106l0.377-0.574
				c0.114-0.182,0.164-0.182,0.189-0.182c0.051,0,0.076,0.014,0.24,0.14l0.743,0.589c0.025,0.027,0.126,0.111,0.126,0.21
				c0,0.14-0.113,0.153-0.201,0.153h-3.177v2.704h2.899l0.579-0.757c0.101-0.14,0.139-0.182,0.202-0.182
				c0.088,0,0.214,0.141,0.227,0.154l0.756,0.756c0.089,0.084,0.127,0.127,0.127,0.211c0,0.14-0.102,0.153-0.189,0.153h-8.256
				c-0.303,0-0.92,0.015-1.475,0.126l-0.252-0.561c0.869,0.084,1.727,0.099,1.941,0.099h2.596v-2.704H46.79
				c-0.315,0-0.92,0.015-1.487,0.127l-0.253-0.561c0.87,0.084,1.74,0.098,1.941,0.098h0.92c0-1.526-0.012-3.67-0.025-4.51
				c0-0.701-0.062-0.925-0.238-1.611l1.223,0.393c0.238,0.084,0.276,0.154,0.276,0.238c0,0.168-0.139,0.266-0.365,0.434
				c-0.025,1.037-0.025,3.838-0.025,5.057H50.458z M46.878,30.162c0.076,0.042,0.189,0.112,0.189,0.238
				c0,0.168-0.151,0.21-0.441,0.294c-0.201,0.477-0.416,0.953-0.719,1.541c0.24,0.084,1.538,0.631,1.538,1.582
				c0,0.267-0.151,0.533-0.441,0.533c-0.227,0-0.44-0.154-0.593-0.658c-0.238-0.757-0.289-0.91-0.592-1.303
				c-0.391,0.714-0.756,1.303-1.626,2.186l-0.101-0.099c0.504-0.827,1.109-2.354,1.373-3.18c0.366-1.149,0.354-1.401,0.315-1.737
				L46.878,30.162z M49.071,34.435c0.818-1.205,1.486-2.998,1.752-4.244c0.075-0.351,0.062-0.603,0.051-0.812l1.197,0.729
				c0.113,0.056,0.188,0.125,0.188,0.209c0,0.154-0.05,0.169-0.542,0.337c-0.34,0.798-0.529,1.163-0.744,1.541
				c0.366,0.098,2.067,0.574,2.067,1.61c0,0.196-0.088,0.589-0.466,0.589c-0.303,0-0.416-0.196-0.744-0.812
				c-0.252-0.462-0.541-0.925-0.945-1.233c-0.604,1.01-1.008,1.514-1.714,2.186L49.071,34.435z"/>
		</g>
	</g>
</g>
<g id="Slice">
	<rect id="_x3C_スライス_x3E__10_" fill="none" width="74" height="86"/>
</g>
</svg>
